tt2562232;Michael;Keaton;1972-10-17
tt2562232;Emma;Stone;1978-12-13
tt2562232;Kenny;Chin;1971-5-21
tt2562232;Jamahl;Garrison-Lowe;1956-1-2
tt1065073;Ellar;Coltrane;1944-6-14
tt1065073;Patricia;Arquette;1976-2-25
tt1065073;Elijah;Smith;1978-2-14
tt1065073;Lorelei;Linklater;1976-10-14
tt2278388;Ralph;Fiennes;1942-10-8
tt2278388;F.;Abraham;1943-8-28
tt2278388;Mathieu;Amalric;1973-3-24
tt2278388;Adrien;Brody;1954-10-16
tt2084970;Benedict;Cumberbatch;1942-6-28
tt2084970;Keira;Knightley;1972-11-17
tt2084970;Matthew;Goode;1976-3-17
tt2084970;Rory;Kinnear;1945-12-16
tt2179136;Bradley;Cooper;1942-10-8
tt2179136;Kyle;Gallner;1950-7-5
tt2179136;Cole;Konis;1968-6-1
tt2179136;Ben;Reed;1941-2-17
tt2980516;Eddie;Redmayne;1953-12-15
tt2980516;Felicity;Jones;1970-11-28
tt2980516;Tom;Prior;1959-10-29
tt2980516;Sophie;Perry;1971-9-7
tt2582802;Miles;Teller;1961-12-13
tt2582802;J.K.;Simmons;1976-1-3
tt2582802;Paul;Reiser;1953-1-11
tt2582802;Melissa;Benoist;1974-1-16
tt1020072;David;Oyelowo;1941-4-28
tt1020072;Carmen;Ejogo;1967-12-20
tt1020072;Jim;France;1952-4-15
tt1020072;Trinity;Simone;1965-10-5
tt1100089;Steve;Carell;1948-5-17
tt1100089;Channing;Tatum;1965-8-11
tt1100089;Mark;Ruffalo;1956-6-12
tt1100089;Sienna;Miller;1940-1-3
tt3316960;Julianne;Moore;1973-5-16
tt3316960;Kate;Bosworth;1979-11-8
tt3316960;Shane;McRae;1971-5-2
tt3316960;Hunter;Parrish;1945-7-8
tt2737050;Marion;Cotillard;1942-5-16
tt2737050;Fabrizio;Rongione;1976-7-23
tt2737050;Catherine;Salée;1976-5-15
tt2737050;Batiste;Sornin;1955-6-3
tt2267998;Ben;Affleck;1945-11-23
tt2267998;Rosamund;Pike;1949-12-30
tt2267998;Neil;Harris;1949-3-2
tt2267998;Tyler;Perry;1970-7-13
tt0758758;Emile;Hirsch;1976-6-7
tt0758758;Marcia;Harden;1952-8-7
tt0758758;William;Hurt;1977-8-23
tt0758758;Jena;Malone;1968-5-17
tt1872194;Robert;Jr.;1943-11-29
tt1872194;Robert;Duvall;1951-5-13
tt1872194;Vera;Farmiga;1974-5-2
tt1872194;Billy;Thornton;1941-4-10
tt2180411;Anna;Kendrick;1970-12-30
tt2180411;Daniel;Huttlestone;1964-1-22
tt2180411;James;Corden;1947-3-6
tt2180411;Emily;Blunt;1976-3-29
tt2718492;Agata;Kulesza;1980-8-26
tt2718492;Agata;Trzebuchowska;1945-8-5
tt2718492;Dawid;Ogrodnik;1948-1-24
tt2718492;Jerzy;Trela;1972-7-31
tt3011894;Darío;Grandinetti;1978-12-2
tt3011894;María;Marull;1941-1-27
tt3011894;Mónica;Villa;1958-3-6
tt3011894;Rita;Cortese;1959-10-29
tt2802154;Elena;Lyadova;1953-12-3
tt2802154;Vladimir;Vdovichenkov;1946-12-22
tt2802154;Aleksey;Serebryakov;1954-6-17
tt2802154;Roman;Madyanov;1942-8-5
tt3409392;Ibrahim;Ahmed;1969-10-6
tt3409392;Abel;Jafri;1975-8-1
tt3409392;Toulou;Kiki;1954-5-23
tt3409392;Layla;Mohamed;1949-12-7
tt2991224;Lembit;Ulfsak;1962-4-8
tt2991224;Elmo;Nüganen;1973-11-25
tt2991224;Giorgi;Nakashidze;1964-12-10
tt2991224;Misha;Meskhi;1945-6-30
tt2872718;Jake;Gyllenhaal;1940-7-3
tt2872718;Michael;Papajohn;1978-1-26
tt2872718;Marco;Rodríguez;1943-9-11
tt2872718;Bill;Paxton;1971-6-29
tt1791528;Joanna;Newsom;1961-9-7
tt1791528;Katherine;Waterston;1975-6-20
tt1791528;Joaquin;Phoenix;1968-2-16
tt1791528;Jordan;Hearn;1975-5-20
tt2473794;Timothy;Spall;1976-7-7
tt2473794;Paul;Jesson;1961-12-14
tt2473794;Dorothy;Atkinson;1958-12-4
tt2473794;Marion;Bailey;1963-11-23
tt1809398;Jack;O'Connell;1957-8-3
tt1809398;Domhnall;Gleeson;1945-1-30
tt1809398;Garrett;Hedlund;1946-4-15
tt1809398;Takamasa;Ishihara;1948-8-3
tt0816692;Ellen;Burstyn;1943-2-27
tt0816692;Matthew;McConaughey;1958-4-17
tt0816692;Mackenzie;Foy;1948-1-23
tt0816692;John;Lithgow;1968-9-20
tt1490017;Will;Arnett;1956-12-8
tt1490017;Elizabeth;Banks;1943-2-25
tt1490017;Craig;Berry;1979-2-17
tt1490017;Alison;Brie;1972-9-20
tt1980929;James;Corden;1947-3-6
tt1980929;Keira;Knightley;1972-11-17
tt1980929;Mark;Ruffalo;1956-6-12
tt1980929;Hailee;Steinfeld;1978-4-20
tt3125324;Gugu;Mbatha-Raw;1947-2-7
tt3125324;Nate;Parker;1975-9-12
tt3125324;Minnie;Driver;1962-2-5
tt3125324;Machine;Kelly;1943-7-14
tt2049586;Scott;Borchetta;1959-5-18
tt2049586;Ashley;Campbell;1977-7-10
tt2049586;Cal;Campbell;1967-9-10
tt2049586;Glen;Campbell;1978-12-14
tt1587310;Angelina;Jolie;1978-5-27
tt1587310;Elle;Fanning;1965-2-26
tt1587310;Sharlto;Copley;1956-2-25
tt1587310;Lesley;Manville;1960-3-19
tt2015381;Chris;Pratt;1956-9-27
tt2015381;Zoe;Saldana;1947-7-12
tt2015381;Dave;Bautista;1971-6-10
tt2015381;Vin;Diesel;1947-12-23
tt2310332;Ian;McKellen;1943-1-27
tt2310332;Martin;Freeman;1942-7-1
tt2310332;Richard;Armitage;1962-12-13
tt2310332;Ken;Stott;1944-11-20
tt1843866;Chris;Evans;1968-10-9
tt1843866;Samuel;Jackson;1941-8-26
tt1843866;Scarlett;Johansson;1942-7-25
tt1843866;Robert;Redford;1956-8-25
tt2103281;Andy;Serkis;1942-10-19
tt2103281;Jason;Clarke;1964-1-19
tt2103281;Gary;Oldman;1964-8-20
tt2103281;Keri;Russell;1945-1-1
tt1877832;Hugh;Jackman;1977-6-14
tt1877832;James;McAvoy;1945-3-19
tt1877832;Michael;Fassbender;1949-7-31
tt1877832;Jennifer;Lawrence;1978-2-28
tt2245084;Scott;Adsit;1974-1-1
tt2245084;Ryan;Potter;1965-9-4
tt2245084;Daniel;Henney;1973-6-4
tt2245084;T.J.;Miller;1947-9-27
tt0787474;Ben;Kingsley;1953-10-17
tt0787474;Jared;Harris;1973-1-31
tt0787474;Nick;Frost;1964-2-1
tt0787474;Richard;Ayoade;1942-1-20
tt1646971;Jay;Baruchel;1963-9-19
tt1646971;Cate;Blanchett;1964-2-5
tt1646971;Gerard;Butler;1951-11-17
tt1646971;Craig;Ferguson;1947-5-4
tt1865505;Brendan;Gleeson;1962-10-4
tt1865505;Fionnula;Flanagan;1973-5-5
tt1865505;David;Rawle;1977-1-14
tt1865505;Pat;Shortt;1962-5-1
tt2576852;Chloë;Moretz;1948-10-6
tt2576852;James;Caan;1950-3-27
tt2576852;Mary;Steenburgen;1943-1-29
tt2576852;Darren;Criss;1952-11-23
tt0426459;Balthazar;Getty;1940-6-20
tt0426459;Henry;Rollins;1976-11-19
tt0426459;Navi;Rawat;1953-7-11
tt0426459;Judah;Friedlander;1944-12-25
tt3610188;Anne;Cunningham;1958-10-10
tt3610188;Christopher;Nightingale;1945-5-1
tt3610188;Alisdair;Simpson;1960-7-10
tt3326262;Lars;Mikkelsen;1960-3-1
tt3838700;N/A;@@@;1971-9-25
tt3946086;N/A;@@@;1971-9-25
tt4044364;Edward;Snowden;1943-7-7
tt4044364;Glenn;Greenwald;1978-2-8
tt4044364;William;Binney;1945-4-25
tt4044364;Jacob;Appelbaum;1942-4-6
tt2714900;Vivian;Maier;1946-11-5
tt2714900;John;Maloof;1955-8-20
tt2714900;Daniel;Arnaud;1944-2-16
tt2714900;Simon;Amédé;1944-1-2
tt3279124;N/A;@@@;1971-9-25
tt3674140;Sebastião;Salgado;1978-8-26
tt3674140;Wim;Wenders;1944-3-10
tt3674140;Juliano;Salgado;1980-2-28
tt3674140;Hugo;Barbier;1949-11-9
tt3455224;André;Bauma;1940-1-28
tt3455224;Emmanuel;Merode;1973-12-18
tt3455224;Mélanie;Gouby;1972-7-23
tt3455224;Rodrigue;Katembo;1943-8-17
tt3449252;N/A;@@@;1971-9-25
tt1799110;Urszula;Grabowska;1966-5-26
tt1799110;Sara;Knothe;1944-12-21
tt1799110;Stanislawa;Celinska;1970-8-18
tt1799110;Kinga;Preis;1974-6-22
tt3069992;Magda;Hueckel;1940-5-20
tt3069992;Tomasz;Sliwinski;1947-11-4
tt3069992;Leo;Hueckel-Sliwinski;1960-3-23
tt1523317;Miguel;Perez;1965-9-2
tt1523317;Eva;Molina;1942-7-28
tt3044564;N/A;@@@;1971-9-25
tt3071532;Sally;Hawkins;1953-9-7
tt3071532;Jim;Broadbent;1962-4-30
tt3071532;Edward;Hogg;1949-10-9
tt3071532;Prunella;Scales;1948-10-25
tt2326094;Sarah;Adler;1948-5-20
tt2326094;Ulrich;Thomsen;1963-9-28
tt3612232;Martin;McCann;1940-10-29
tt3612232;Charlene;McKenna;1970-7-13
tt3612232;Jonathan;Harden;1969-10-19
tt3612232;Riley;Hamilton;1977-12-27
tt2922078;Genden;Punstock;1947-11-27
tt3008010;Alireza;Bayram;1969-8-28
tt3008010;Brigitte;Beyeler;1948-3-11
tt3008010;Cheryl;Graf;1961-1-12
tt3008010;Nissa;Kashani;1961-7-12
tt2024544;Chiwetel;Ejiofor;1965-1-3
tt2024544;Dwight;Henry;1942-5-27
tt2024544;Dickie;Gravois;1958-2-20
tt2024544;Bryan;Batt;1967-9-1
tt1535109;Tom;Hanks;1952-11-10
tt1535109;Catherine;Keener;1978-12-3
tt1535109;Barkhad;Abdi;1972-6-4
tt1535109;Barkhad;Abdirahman;1976-2-17
tt0790636;Matthew;McConaughey;1958-4-17
tt0790636;Jennifer;Garner;1972-1-29
tt0790636;Jared;Leto;1978-8-20
tt0790636;Denis;O'Hare;1966-10-12
tt1454468;Sandra;Bullock;1971-1-18
tt1454468;George;Clooney;1958-12-25
tt1454468;Ed;Harris;1959-10-1
tt1454468;Orto;Ignatiussen;1977-12-26
tt1798709;Joaquin;Phoenix;1968-2-16
tt1798709;Lynn;Adrianna;1978-1-4
tt1798709;Lisa;Pitts;1959-1-19
tt1798709;Gabe;Gomez;1968-7-29
tt1821549;Bruce;Dern;1944-9-4
tt1821549;Will;Forte;1972-7-22
tt1821549;June;Squibb;1977-11-15
tt1821549;Bob;Odenkirk;1949-11-9
tt2431286;Judi;Dench;1968-1-25
tt2431286;Steve;Coogan;1965-5-12
tt2431286;Sophie;Clark;1969-3-11
tt2431286;Mare;Winningham;1970-12-26
tt1800241;Christian;Bale;1960-5-1
tt1800241;Bradley;Cooper;1942-10-8
tt1800241;Amy;Adams;1950-6-10
tt1800241;Jeremy;Renner;1944-10-6
tt0993846;Leonardo;DiCaprio;1951-10-10
tt0993846;Jonah;Hill;1966-1-20
tt0993846;Margot;Robbie;1973-9-9
tt0993846;Matthew;McConaughey;1958-4-17
tt2334873;Cate;Blanchett;1964-2-5
tt2334873;Joy;Carlin;1975-11-4
tt2334873;Richard;Conti;1942-12-20
tt2334873;Glen;Caspillo;1953-10-3
tt1322269;Meryl;Streep;1940-5-13
tt1322269;Julia;Roberts;1968-9-17
tt1322269;Chris;Cooper;1947-3-26
tt1322269;Ewan;McGregor;1960-3-4
tt2358891;Toni;Servillo;1977-7-5
tt2358891;Carlo;Verdone;1966-2-15
tt2358891;Sabrina;Ferilli;1950-11-24
tt2358891;Carlo;Buccirosso;1942-3-29
tt2024519;Johan;Heldenbergh;1973-9-16
tt2024519;Veerle;Baetens;1944-9-15
tt2024519;Nell;Cattrysse;1973-6-3
tt2024519;Geert;Rampelberg;1951-1-8
tt2852470;Randal;Douc;1942-2-12
tt2852470;Jean-Baptiste;Phou;1949-7-18
tt0099810;Sean;Connery;1969-2-22
tt0099810;Alec;Baldwin;1963-4-30
tt0099810;Scott;Glenn;1969-11-17
tt0099810;Sam;Neill;1978-8-30
tt2852406;Adam;Bakri;1975-5-31
tt2852406;Leem;Lubany;1959-1-2
tt2852406;Waleed;Zuaiter;1978-10-3
tt2852406;Samer;Bisharat;1962-6-1
tt2209418;Ethan;Hawke;1973-7-26
tt2209418;Julie;Delpy;1956-1-15
tt2209418;Seamus;Davey-Fitzpatrick;1943-7-31
tt2209418;Jennifer;Prior;1973-1-22
tt2042568;Oscar;Isaac;1978-11-2
tt2042568;Carey;Mulligan;1965-11-3
tt2042568;Justin;Timberlake;1956-6-17
tt2042568;Ethan;Phillips;1941-1-28
tt1392214;Hugh;Jackman;1977-6-14
tt1392214;Jake;Gyllenhaal;1940-7-3
tt1392214;Viola;Davis;1961-4-23
tt1392214;Maria;Bello;1968-6-1
tt1462900;Tony;Leung;1971-1-8
tt1462900;Cung;Le;1962-3-12
tt1462900;Qingxiang;Wang;1944-11-19
tt1462900;Elvis;Tsui;1963-7-4
tt0816442;Roger;Allam;1976-12-9
tt0816442;Sophie;Nélisse;1978-8-15
tt0816442;Heike;Makatsch;1974-3-15
tt0816442;Julian;Lehmann;1961-8-8
tt2140373;Emma;Thompson;1952-10-27
tt2140373;Tom;Hanks;1952-11-10
tt2140373;Annie;Buckley;1958-12-17
tt2140373;Colin;Farrell;1944-7-28
tt2294629;Kristen;Bell;1955-3-27
tt2294629;Idina;Menzel;1980-2-14
tt2294629;Jonathan;Groff;1967-7-9
tt2294629;Josh;Gad;1963-2-9
tt1690953;Steve;Carell;1948-5-17
tt1690953;Kristen;Wiig;1946-7-24
tt1690953;Benjamin;Bratt;1966-6-9
tt1690953;Miranda;Cosgrove;1980-3-19
tt2304771;Idris;Elba;1979-6-18
tt2304771;Naomie;Harris;1980-5-31
tt2304771;Tony;Kgoroge;1978-7-11
tt2304771;Riaad;Moosa;1972-2-24
tt1343092;Lisa;Adam;1975-12-12
tt1343092;Frank;Aldridge;1958-7-1
tt1343092;Amitabh;Bachchan;1952-3-29
tt1343092;Steve;Bisley;1947-8-28
tt1700845;Felicity;Jones;1970-11-28
tt1700845;John;Kavanagh;1950-10-8
tt1700845;Tom;Attwood;1962-4-15
tt1700845;Susanna;Hislop;1968-9-4
tt3063516;Johnny;Knoxville;1957-2-25
tt3063516;Jackson;Nicoll;1973-4-25
tt3063516;Greg;Harris;1948-1-27
tt3063516;Georgina;Cates;1972-10-8
tt1210819;Johnny;Depp;1947-4-26
tt1210819;Armie;Hammer;1971-4-21
tt1210819;William;Fichtner;1949-12-15
tt1210819;Tom;Wilkinson;1971-12-9
tt1170358;Ian;McKellen;1943-1-27
tt1170358;Martin;Freeman;1942-7-1
tt1170358;Richard;Armitage;1962-12-13
tt1170358;Ken;Stott;1944-11-20
tt1091191;Mark;Wahlberg;1957-10-19
tt1091191;Taylor;Kitsch;1977-10-11
tt1091191;Emile;Hirsch;1976-6-7
tt1091191;Ben;Foster;1968-7-20
tt2017038;Robert;Redford;1956-8-25
tt1300854;Robert;Jr.;1943-11-29
tt1300854;Gwyneth;Paltrow;1944-6-24
tt1300854;Don;Cheadle;1964-11-17
tt1300854;Guy;Pearce;1964-12-25
tt1408101;Chris;Pine;1977-12-19
tt1408101;Zachary;Quinto;1963-3-24
tt1408101;Zoe;Saldana;1947-7-12
tt1408101;Karl;Urban;1957-3-8
tt0481499;Nicolas;Cage;1955-6-23
tt0481499;Emma;Stone;1978-12-13
tt0481499;Ryan;Reynolds;1975-5-1
tt0481499;Catherine;Keener;1978-12-3
tt1816518;Forest;Whitaker;1963-9-19
tt1816518;Lambert;Wilson;1962-4-22
tt1816518;Pauline;Brunner;1959-11-7
tt1816518;Mackenzie;Foy;1948-1-23
tt2013293;Hideaki;Anno;1960-4-20
tt2013293;Hidetoshi;Nishijima;1954-2-10
tt2013293;Miori;Takimoto;1952-9-30
tt2013293;Masahiko;Nishimura;1959-10-1
tt3043542;N/A;@@@;1971-9-25
tt2484120;Simon;Pegg;1943-12-6
tt2484120;Gillian;Anderson;1941-2-9
tt2484120;Rob;Brydon;1958-2-28
tt2484120;Timothy;Spall;1976-7-7
tt2499022;Elsie;McKendry;1961-1-27
tt2499022;Brett;Tobasky;1955-1-10
tt0171259;Susan;Sarandon;1976-11-22
tt0171259;Phoebe;Lapine;1946-4-20
tt0171259;Anna;Menken;1978-3-26
tt0171259;Marge;Redmond;1955-7-16
tt2396566;Lou;Adler;1974-11-12
tt2396566;Stephanie;Alexander;1980-3-2
tt2396566;Patti;Austin;1968-7-3
tt2396566;Chris;Botti;1971-8-19
tt2375605;Anwar;Congo;1953-8-26
tt2375605;Herman;Koto;1970-1-9
tt2375605;Syamsul;Arifin;1954-11-7
tt2375605;Ibrahim;Sinik;1974-8-3
tt2355540;Noriko;Shinohara;1970-4-22
tt2355540;Ushio;Shinohara;1959-11-12
tt2355540;Alex;Shinohara;1950-12-4
tt2355540;Ethan;Cohen;1970-10-23
tt2532528;Nasser;Aulaqi;1974-10-4
tt2532528;Saleha;Aulaqi;1974-6-8
tt2532528;Muqbal;Kazemi;1969-5-25
tt2532528;Abdul;Barman;1977-11-16
tt2486682;Ahmed;Hassan;1960-10-28
tt2486682;Khalid;Abdalla;1959-8-29
tt2486682;Magdy;Ashour;1960-4-28
tt2486682;Ramy;Essam;1965-6-15
tt2924484;Aliza;Sommer-Herz;1945-1-12
tt2516860;Ra;Paulette;1953-1-24
tt2516860;Pierre;Delattre;1964-11-19
tt2516860;Suzanne;Eliel;1946-6-23
tt2516860;David;Heath;1973-2-5
tt2776636;N/A;@@@;1971-9-25
tt2551790;Saleem;Al-Harazi;1945-7-2
tt2551790;Anwar;Al-Muati;1949-8-5
tt3145026;N/A;@@@;1971-9-25
tt3346410;Casper;Crump;1947-5-13
tt3346410;Marijana;Jankovic;1950-1-13
tt3346410;Pelle;Krusbæk;1962-2-15
tt2372213;Alejandra;Lorente;1960-2-24
tt2372213;Gustavo;Salmerón;1943-7-23
tt2372213;Babou;Cham;1979-8-26
tt2372213;Mariano;Nguema;1956-9-9
tt2689992;Léa;Drucker;1969-10-1
tt2689992;Anne;Benoît;1950-5-23
tt2689992;Miljan;Chatelain;1962-6-12
tt2689992;Mathilde;Auneveux;1965-3-6
tt2256646;Joanna;Haartti;1959-12-31
tt2256646;Santtu;Karvonen;1949-7-29
tt2256646;Ranja;Omaheimo;1956-11-21
tt2256646;Ella;Toivoniemi;1955-3-28
tt1998355;Martin;Freeman;1942-7-1
tt1998355;Tom;Hollander;1962-11-27
tt1998355;Simon;Griffiths;1959-3-2
tt1998355;Elisabeth;Gray;1961-1-26
tt1024648;Ben;Affleck;1945-11-23
tt1024648;Bryan;Cranston;1949-10-30
tt1024648;Alan;Arkin;1962-3-6
tt1024648;John;Goodman;1952-5-10
tt1570728;Steve;Carell;1948-5-17
tt1570728;Ryan;Gosling;1972-10-8
tt1570728;Julianne;Moore;1973-5-16
tt1570728;Emma;Stone;1978-12-13
tt2125435;Quvenzhané;Wallis;1942-10-25
tt2125435;Dwight;Henry;1942-5-27
tt2125435;Levy;Easterly;1975-12-10
tt2125435;Lowell;Landes;1962-3-28
tt1853728;Jamie;Foxx;1947-12-1
tt1853728;Christoph;Waltz;1966-12-11
tt1853728;Leonardo;DiCaprio;1951-10-10
tt1853728;Kerry;Washington;1940-1-15
tt1707386;Hugh;Jackman;1977-6-14
tt1707386;Russell;Crowe;1958-3-6
tt1707386;Anne;Hathaway;1941-3-1
tt1707386;Amanda;Seyfried;1977-4-28
tt0454876;Suraj;Sharma;1956-4-2
tt0454876;Irrfan;Khan;1940-8-17
tt0454876;Ayush;Tandon;1945-4-20
tt0454876;Gautam;Belur;1966-2-15
tt0443272;Daniel;Day-Lewis;1940-2-3
tt0443272;Sally;Field;1962-7-30
tt0443272;David;Strathairn;1980-12-18
tt0443272;Joseph;Gordon-Levitt;1959-5-25
tt1045658;Bradley;Cooper;1942-10-8
tt1045658;Jennifer;Lawrence;1978-2-28
tt1045658;Robert;Niro;1969-4-27
tt1045658;Jacki;Weaver;1966-9-7
tt1790885;Jason;Clarke;1964-1-19
tt1790885;Reda;Kateb;1948-4-11
tt1790885;Jessica;Chastain;1943-4-12
tt1790885;Kyle;Chandler;1940-7-8
tt0311113;Russell;Crowe;1958-3-6
tt0311113;Paul;Bettany;1956-6-11
tt0311113;James;D'Arcy;1946-6-1
tt0311113;Edward;Woodall;1945-9-4
tt1907668;Nadine;Velazquez;1950-6-22
tt1907668;Denzel;Washington;1956-4-9
tt1907668;Carter;Cabassa;1948-4-29
tt1907668;Adam;Edwards;1958-5-21
tt1649419;Naomi;Watts;1947-1-3
tt1649419;Ewan;McGregor;1960-3-4
tt1649419;Tom;Holland;1958-10-10
tt1649419;Samuel;Joslin;1967-9-10
tt1866249;John;Hawkes;1942-12-19
tt1866249;Helen;Hunt;1946-4-23
tt1866249;William;Macy;1958-3-8
tt1866249;Moon;Bloodgood;1945-7-22
tt0477348;Tommy;Jones;1967-6-4
tt0477348;Javier;Bardem;1942-12-14
tt0477348;Josh;Brolin;1960-3-11
tt0477348;Woody;Harrelson;1963-3-8
tt1276419;Alicia;Vikander;1971-7-22
tt1276419;Mads;Mikkelsen;1974-6-12
tt1276419;Mikkel;Følsgaard;1972-3-9
tt1276419;Trine;Dyrholm;1974-7-24
tt1820488;Rachel;Mwanza;1946-12-10
tt1820488;Alain;Bastien;1972-6-2
tt1820488;Serge;Kanyinda;1949-6-20
tt1820488;Ralph;Prosper;1957-8-1
tt1613750;Pål;Hagen;1978-12-27
tt1613750;Anders;Christiansen;1948-9-19
tt1613750;Tobias;Santelmann;1970-2-6
tt1613750;Gustaf;Skarsgård;1979-3-4
tt1748122;Bruce;Willis;1945-9-16
tt1748122;Edward;Norton;1963-1-18
tt1748122;Bill;Murray;1972-6-9
tt1748122;Frances;McDormand;1946-11-16
tt1781769;Matthew;Macfadyen;1979-2-16
tt1781769;Eric;MacLennan;1966-4-21
tt1781769;Kelly;Macdonald;1942-5-9
tt1781769;Theo;Morrissey;1957-1-31
tt1074638;Daniel;Craig;1948-10-2
tt1074638;Judi;Dench;1968-1-25
tt1074638;Javier;Bardem;1942-12-14
tt1074638;Ralph;Fiennes;1942-10-8
tt1579361;James;Balog;1942-11-5
tt1579361;Svavar;Jónatansson;1968-5-23
tt1579361;Louie;Psihoyos;1980-12-28
tt1579361;Kitty;Boone;1951-4-24
tt1637725;Mark;Wahlberg;1957-10-19
tt1637725;Mila;Kunis;1956-5-25
tt1637725;Seth;MacFarlane;1943-3-14
tt1637725;Joel;McHale;1960-2-2
tt0903624;Ian;McKellen;1943-1-27
tt0903624;Martin;Freeman;1942-7-1
tt0903624;Richard;Armitage;1962-12-13
tt0903624;Ken;Stott;1944-11-20
tt1667353;Julia;Roberts;1968-9-17
tt1667353;Lily;Collins;1973-2-10
tt1667353;Armie;Hammer;1971-4-21
tt1667353;Nathan;Lane;1952-3-9
tt1735898;Kristen;Stewart;1965-4-24
tt1735898;Chris;Hemsworth;1951-7-7
tt1735898;Charlize;Theron;1952-5-29
tt1735898;Sam;Claflin;1968-3-5
tt0975645;Anthony;Hopkins;1967-12-23
tt0975645;Helen;Mirren;1969-4-18
tt0975645;Scarlett;Johansson;1942-7-25
tt0975645;Danny;Huston;1954-1-2
tt0848228;Robert;Jr.;1943-11-29
tt0848228;Chris;Evans;1968-10-9
tt0848228;Mark;Ruffalo;1956-6-12
tt0848228;Chris;Hemsworth;1951-7-7
tt1446714;Noomi;Rapace;1969-7-28
tt1446714;Michael;Fassbender;1949-7-31
tt1446714;Charlize;Theron;1952-5-29
tt1446714;Idris;Elba;1979-6-18
tt1217209;Kelly;Macdonald;1942-5-9
tt1217209;Billy;Connolly;1978-6-14
tt1217209;Emma;Thompson;1952-10-27
tt1217209;Julie;Walters;1974-5-4
tt1144951;Catherine;O'Hara;1940-10-24
tt1144951;Martin;Short;1972-12-28
tt1144951;Martin;Landau;1960-12-27
tt1144951;Charlie;Tahan;1971-10-4
tt1623288;Kodi;Smit-McPhee;1975-4-29
tt1623288;Tucker;Albrizzi;1980-1-25
tt1623288;Anna;Kendrick;1970-12-30
tt1623288;Casey;Affleck;1941-2-20
tt1430626;Hugh;Grant;1954-12-6
tt1430626;Martin;Freeman;1942-7-1
tt1430626;Imelda;Staunton;1972-2-21
tt1430626;David;Tennant;1964-5-3
tt1772341;John;Reilly;1944-2-20
tt1772341;Sarah;Silverman;1947-6-27
tt1772341;Jack;McBrayer;1949-2-20
tt1772341;Jane;Lynch;1960-1-4
tt2388725;Jack;Goldenberg;1980-8-7
tt2388725;John;Kahrs;1972-11-17
tt2388725;Jeff;Turley;1948-5-30
tt2388725;Kari;Wahlgren;1977-4-14
tt2162565;N/A;@@@;1971-9-25
tt2309977;N/A;@@@;1971-9-25
tt0192111;Monica;Potter;1949-5-26
tt0192111;Freddie;Jr.;1980-5-11
tt0192111;Shalom;Harlow;1943-7-21
tt0192111;Ivana;Milicevic;1969-4-27
tt2125608;Stephen;Segerman;1960-5-29
tt2125608;Dennis;Coffey;1976-4-9
tt2125608;Mike;Theodore;1955-1-14
tt2125608;Dan;DiMaggio;1968-9-2
tt2309788;Ami;Ayalon;1957-8-25
tt2309788;Avi;Dichter;1961-7-4
tt2309788;Yuval;Diskin;1963-1-15
tt2309788;Carmi;Gillon;1951-5-13
tt2124803;Ed;Koch;1947-8-22
tt2124803;David;Barr;1946-7-21
tt2124803;Bob;Rafsky;1977-7-10
tt2124803;Jim;Eigo;1942-12-7
tt2120152;Amy;Ziering;1955-5-28
tt2120152;Kirby;Dick;1959-4-19
tt2120152;Kori;Cioca;1943-11-10
tt2120152;Jessica;Hinves;1959-5-14
tt2123210;N/A;@@@;1971-9-25
tt2109153;N/A;@@@;1971-9-25
tt2083264;Rachel;Delmolfetto;1966-6-21
tt2083264;Linda;Hart;1945-8-26
tt2083264;Cambria;Russell;1956-10-28
tt2083264;Cynthia;Sansone;1942-7-25
tt2088962;Juliette;Binoche;1975-8-1
tt2088962;Édgar;Ramírez;1941-3-6
tt2088962;Hippolyte;Girardot;1946-1-21
tt2088962;Amandine;Dewasmes;1972-7-26
tt0111161;Tim;Robbins;1943-3-9
tt0111161;Morgan;Freeman;1953-1-17
tt0111161;Bob;Gunton;1980-1-24
tt0111161;William;Sadler;1968-10-3
tt2088735;Fatima;Ptacek;1949-3-20
tt2088735;Shawn;Christensen;1976-5-15
tt2088735;Kim;Allen;1952-1-30
tt2088735;Dana;Segal;1947-6-30
tt2136747;Harun;Mohammed;1972-5-6
tt2136747;Ibrahim;Hussein;1972-12-24
tt2136747;Ali;Mohammed;1979-9-12
tt2136747;Abdiwale;Mohamed;1969-7-7
tt2133304;Fawad;Mohammadi;1966-11-20
tt2133304;Jawanmard;Paiz;1946-5-19
tt2133304;Wali;Talash;1959-12-11
tt2312702;Matthias;Schoenaerts;1944-8-22
tt2312702;Laura;Verlinden;1950-11-19
tt2312702;Peter;Eede;1971-6-12
tt2312702;Benjamin;Ramon;1952-7-30
tt0097499;Derek;Jacobi;1977-9-9
tt0097499;Kenneth;Branagh;1954-10-5
tt0097499;Simon;Shepherd;1941-6-9
tt0097499;James;Larkin;1944-6-4
tt1655442;Jean;Dujardin;1966-2-12
tt1655442;Bérénice;Bejo;1948-3-12
tt1655442;John;Goodman;1952-5-10
tt1655442;James;Cromwell;1978-12-7
tt0970179;Ben;Kingsley;1953-10-17
tt0970179;Sacha;Cohen;1960-11-8
tt0970179;Asa;Butterfield;1977-3-21
tt0970179;Chloë;Moretz;1948-10-6
tt1210166;Brad;Pitt;1976-12-23
tt1210166;Jonah;Hill;1966-1-20
tt1210166;Philip;Hoffman;1966-2-18
tt1210166;Robin;Wright;1963-8-20
tt1033575;George;Clooney;1958-12-25
tt1033575;Shailene;Woodley;1958-12-19
tt1033575;Amara;Miller;1977-6-9
tt1033575;Nick;Krause;1970-12-25
tt0478304;Brad;Pitt;1976-12-23
tt0478304;Sean;Penn;1967-4-5
tt0478304;Jessica;Chastain;1943-4-12
tt0478304;Hunter;McCracken;1952-9-3
tt1605783;Owen;Wilson;1951-1-4
tt1605783;Rachel;McAdams;1957-4-7
tt1605783;Kurt;Fuller;1951-4-26
tt1605783;Mimi;Kennedy;1960-12-23
tt1454029;Emma;Stone;1978-12-13
tt1454029;Viola;Davis;1961-4-23
tt1454029;Bryce;Howard;1974-10-12
tt1454029;Octavia;Spencer;1976-8-29
tt1568911;Jeremy;Irvine;1940-8-10
tt1568911;Peter;Mullan;1978-9-18
tt1568911;Emily;Watson;1944-1-4
tt1568911;Niels;Arestrup;1945-8-22
tt1554091;Demian;Bichir;1975-4-15
tt1554091;Eddie;Sotelo;1946-9-25
tt1554091;Joaquín;Cosio;1945-10-31
tt1554091;José;Julián;1947-12-26
tt1340800;Mark;Strong;1975-5-18
tt1340800;John;Hurt;1942-5-15
tt1340800;Zoltán;Mucsi;1951-8-1
tt1340800;Péter;Molnár;1942-12-31
tt1007029;Meryl;Streep;1940-5-13
tt1007029;Jim;Broadbent;1962-4-30
tt1007029;Susan;Brown;1961-2-23
tt1007029;Alice;Cunha;1951-2-9
tt1602098;Glenn;Close;1975-6-27
tt1602098;Antonia;Campbell-Hughes;1979-12-19
tt1602098;Mia;Wasikowska;1947-4-10
tt1602098;Pauline;Collins;1975-11-2
tt1568346;Daniel;Craig;1948-10-2
tt1568346;Rooney;Mara;1976-12-12
tt1568346;Christopher;Plummer;1945-6-18
tt1568346;Stellan;Skarsgård;1956-8-17
tt1655420;Michelle;Williams;1954-5-26
tt1655420;Eddie;Redmayne;1953-12-15
tt1655420;Julia;Ormond;1943-9-14
tt1655420;Kenneth;Branagh;1954-10-5
tt1532503;Ewan;McGregor;1960-3-4
tt1532503;Christopher;Plummer;1945-6-18
tt1532503;Mélanie;Laurent;1978-6-21
tt1532503;Goran;Visnjic;1967-11-21
tt1291584;Joel;Edgerton;1946-2-14
tt1291584;Tom;Hardy;1962-8-14
tt1291584;Nick;Nolte;1980-4-4
tt1291584;Jennifer;Morrison;1958-3-4
tt1478338;Kristen;Wiig;1946-7-24
tt1478338;Terry;Crews;1962-10-1
tt1478338;Maya;Rudolph;1971-3-21
tt1478338;Tom;Yi;1971-1-7
tt1821593;Matthias;Schoenaerts;1944-8-22
tt1821593;Jeroen;Perceval;1951-4-2
tt1821593;Jeanne;Dandoy;1942-6-1
tt1821593;Barbara;Sarafian;1954-5-26
tt1445520;Shlomo;Bar-Aba;1979-7-31
tt1445520;Lior;Ashkenazi;1972-6-16
tt1445520;Aliza;Rosen;1978-9-9
tt1445520;Alma;Zack;1968-5-27
tt1417075;Robert;Wieckiewicz;1958-2-28
tt1417075;Benno;Fürmann;1964-9-27
tt1417075;Agnieszka;Grochowska;1963-8-29
tt1417075;Maria;Schrader;1959-11-8
tt2011971;Mohamed;Fellag;1972-11-4
tt2011971;Sophie;Nélisse;1978-8-15
tt2011971;Émilien;Néron;1978-11-5
tt2011971;Marie-Ève;Beauregard;1966-6-18
tt1615147;Kevin;Spacey;1967-3-22
tt1615147;Paul;Bettany;1956-6-11
tt1615147;Jeremy;Irons;1962-8-14
tt1615147;Zachary;Quinto;1963-3-24
tt1124035;Ryan;Gosling;1972-10-8
tt1124035;George;Clooney;1958-12-25
tt1124035;Philip;Hoffman;1966-2-18
tt1124035;Paul;Giamatti;1966-12-8
tt1965148;Shawn;Baichoo;1941-6-21
tt1965148;Ewan;Bailey;1946-6-15
tt1965148;James;Barriscale;1951-1-19
tt1965148;Waleed;Elgadi;1954-12-4
tt1204342;Jason;Segel;1971-5-14
tt1204342;Amy;Adams;1950-6-10
tt1204342;Chris;Cooper;1947-3-26
tt1204342;Rashida;Jones;1972-11-3
tt1436562;Karen;Disher;1948-6-30
tt1436562;Jason;Fricchione;1973-6-9
tt1436562;Sofia;Saldanha;1959-3-28
tt1436562;Leslie;Mann;1960-4-6
tt1680310;Adam;Sopp;1970-3-3
tt1680310;Rupert;Grint;1979-6-8
tt1680310;Alice;Keenan;1975-8-12
tt1680310;David;Schofield;1942-4-6
tt1521197;Rhys;Ifans;1945-4-4
tt1521197;Vanessa;Redgrave;1970-9-8
tt1521197;Sebastian;Armesto;1941-10-5
tt1521197;Rafe;Spall;1963-7-5
tt1229822;Mia;Wasikowska;1947-4-10
tt1229822;Jamie;Bell;1942-10-23
tt1229822;Su;Elliot;1946-6-6
tt1229822;Holliday;Grainger;1975-5-5
tt1723121;Jennifer;Aniston;1980-12-26
tt1723121;Jason;Sudeikis;1965-5-1
tt1723121;Emma;Roberts;1951-9-30
tt1723121;Will;Poulter;1964-4-5
tt1399103;Shia;LaBeouf;1951-4-25
tt1399103;Rosie;Huntington-Whiteley;1951-5-29
tt1399103;Josh;Duhamel;1978-11-2
tt1399103;John;Turturro;1972-5-26
tt0780504;Ryan;Gosling;1972-10-8
tt0780504;Carey;Mulligan;1965-11-3
tt0780504;Bryan;Cranston;1949-10-30
tt0780504;Albert;Brooks;1957-8-31
tt0433035;Hugh;Jackman;1977-6-14
tt0433035;Dakota;Goyo;1953-2-18
tt0433035;Evangeline;Lilly;1979-5-10
tt0433035;Anthony;Mackie;1963-6-4
tt1318514;Andy;Serkis;1942-10-19
tt1318514;Karin;Konoval;1945-7-17
tt1318514;Terry;Notary;1943-1-21
tt1318514;Richard;Ridings;1941-7-7
tt1192628;Johnny;Depp;1947-4-26
tt1192628;Isla;Fisher;1972-7-6
tt1192628;Abigail;Breslin;1940-3-8
tt1192628;Ned;Beatty;1961-3-16
tt1673702;Dominique;Blanc;1966-1-13
tt1673702;Bernadette;Lafont;1969-9-20
tt1673702;Bruno;Salomone;1967-2-8
tt1673702;Jean;Benguigui;1948-12-30
tt1235830;Limara;Meneses;1978-10-17
tt1235830;Eman;Oña;1971-8-18
tt1235830;Mario;Guerra;1948-4-22
tt1235830;Jon;Adams;1967-10-27
tt1302011;Jack;Black;1966-10-19
tt1302011;Angelina;Jolie;1978-5-27
tt1302011;Dustin;Hoffman;1957-2-26
tt1302011;Gary;Oldman;1964-8-20
tt0448694;Antonio;Banderas;1976-4-8
tt0448694;Salma;Hayek;1944-1-19
tt0448694;Zach;Galifianakis;1946-11-30
tt0448694;Billy;Thornton;1941-4-10
tt1778342;N/A;@@@;1971-9-25
tt0146838;Al;Pacino;1980-4-12
tt0146838;Cameron;Diaz;1978-8-2
tt0146838;Dennis;Quaid;1978-2-28
tt0146838;James;Woods;1971-6-22
tt1957945;Krista;Sheffler;1954-12-31
tt1957945;Tony;Fucile;1953-11-22
tt1957945;Phil;Sheridan;1956-10-13
tt1964446;N/A;@@@;1971-9-25
tt0088402;Chris;Penn;1979-2-25
tt0088402;Ilan;Mitchell-Smith;1941-12-9
tt0088402;Eric;Stoltz;1955-9-10
tt0088402;Jenny;Wright;1979-12-29
tt1860355;Montrail;Brown;1959-11-2
tt1860355;O.C.;Brown;1941-10-4
tt1860355;Bill;Courtney;1941-12-10
tt1860355;Chavis;Daniels;1975-2-15
tt1748043;Nathan;Harris;1975-1-24
tt1748043;Ashley;Harris;1975-12-14
tt1748043;The;Company;1943-2-28
tt1748043;Christian;Cabaniss;1954-1-30
tt1787725;Daniel;McGowan;1941-3-2
tt1787725;Lisa;McGowan;1959-12-20
tt1787725;Tim;Lewis;1960-7-23
tt1787725;Kirk;Engdall;1940-3-16
tt2028530;Gary;Gitchell;1947-7-31
tt2028530;Todd;Moore;1959-3-20
tt2028530;Dana;Moore;1971-8-26
tt2028530;Pam;Hobbs;1965-9-8
tt1440266;Regina;Advento;1965-2-17
tt1440266;Malou;Airaudo;1966-7-14
tt1440266;Ruth;Amarante;1953-9-26
tt1440266;Jorge;Puerta;1948-12-31
tt0384504;Michelle;Krusiec;1975-1-4
tt0384504;Joan;Chen;1944-2-19
tt0384504;Lynn;Chen;1974-8-19
tt0384504;Jin;Wang;1954-8-6
tt1844056;James;Armstrong;1962-5-9
tt2210633;Dolores;Hart;1974-11-7
tt2210633;Elvis;Presley;1952-5-11
tt1746180;N/A;@@@;1971-9-25
tt2028578;N/A;@@@;1971-9-25
tt1155060;Famke;Janssen;1942-10-9
tt1155060;James;Gandolfini;1966-2-20
tt1155060;Maria;Dizzia;1979-7-18
tt1155060;John;Magaro;1954-11-26
tt1866218;Andrew;Bennett;1965-4-15
tt1866218;Scott;Graham;1959-5-17
tt1866218;Michael;McElhatton;1958-10-14
tt1866218;Valerie;Spelman;1948-9-24
tt0173102;Shah;Khan;1943-4-11
tt0173102;Amrita;Singh;1956-6-5
tt0173102;Juhi;Chawla;1964-4-3
tt0173102;Navin;Nischol;1945-11-30
tt1733689;Michael;Nathanson;1966-3-1
tt1733689;John;Brooke;1977-1-19
tt1733689;Emilea;Wilson;1953-1-15
tt1733689;Hector;Diaz;1958-5-18
tt2061843;David;Chocron;1964-8-24
tt2061843;Edvard;Hægstad;1948-6-8
tt2061843;Terje;Ranes;1949-5-2
tt2061843;Ingrid;Viken;1962-3-29
tt1504320;Colin;Firth;1974-6-17
tt1504320;Helena;Carter;1943-11-13
tt1504320;Derek;Jacobi;1977-9-9
tt1504320;Robert;Portal;1951-2-1
tt1285016;Jesse;Eisenberg;1972-10-6
tt1285016;Rooney;Mara;1976-12-12
tt1285016;Bryan;Barter;1965-6-11
tt1285016;Dustin;Fitzsimons;1975-11-29
tt0964517;Mark;Wahlberg;1957-10-19
tt0964517;Christian;Bale;1960-5-1
tt0964517;Amy;Adams;1950-6-10
tt0964517;Melissa;Leo;1973-10-27
tt0947798;Natalie;Portman;1955-5-21
tt0947798;Mila;Kunis;1956-5-25
tt0947798;Vincent;Cassel;1954-12-21
tt0947798;Barbara;Hershey;1951-5-8
tt1375666;Leonardo;DiCaprio;1951-10-10
tt1375666;Joseph;Gordon-Levitt;1959-5-25
tt1375666;Ellen;Page;1960-11-12
tt1375666;Tom;Hardy;1962-8-14
tt0435761;Tom;Hanks;1952-11-10
tt0435761;Tim;Allen;1959-2-13
tt0435761;Joan;Cusack;1951-4-7
tt0435761;Ned;Beatty;1961-3-16
tt1542344;James;Franco;1964-9-13
tt1542344;Kate;Mara;1976-6-4
tt1542344;Amber;Tamblyn;1975-11-15
tt1542344;Sean;Bott;1964-10-1
tt1399683;Jennifer;Lawrence;1978-2-28
tt1399683;Isaiah;Stone;1979-4-5
tt1399683;Ashlee;Thompson;1964-3-26
tt1399683;Valerie;Richards;1955-1-11
tt1403865;Jeff;Bridges;1978-6-3
tt1403865;Hailee;Steinfeld;1978-4-20
tt1403865;Matt;Damon;1965-4-30
tt1403865;Josh;Brolin;1960-3-11
tt0842926;Julianne;Moore;1973-5-16
tt0842926;Annette;Bening;1948-3-17
tt0842926;Mark;Ruffalo;1956-6-12
tt0842926;Mia;Wasikowska;1947-4-10
tt1164999;Javier;Bardem;1942-12-14
tt1164999;Maricel;Álvarez;1940-9-27
tt1164999;Hanaa;Bouchaib;1973-3-12
tt1164999;Guillermo;Estrella;1957-8-9
tt0935075;Nicole;Kidman;1963-8-30
tt0935075;Aaron;Eckhart;1956-4-6
tt0935075;Dianne;Wiest;1945-9-16
tt0935075;Miles;Teller;1961-12-13
tt1120985;Ryan;Gosling;1972-10-8
tt1120985;Michelle;Williams;1954-5-26
tt1120985;Faith;Wladyka;1969-9-27
tt1120985;John;Doman;1957-6-8
tt0840361;Ben;Affleck;1945-11-23
tt0840361;Rebecca;Hall;1971-3-13
tt0840361;Jon;Hamm;1957-10-26
tt0840361;Jeremy;Renner;1944-10-6
tt1313092;James;Frecheville;1965-8-29
tt1313092;Bryce;Lindemann;1958-2-22
tt1313092;Paul;Smits;1960-2-4
tt1313092;Jacki;Weaver;1966-9-7
tt1340107;Mikael;Persbrandt;1942-10-23
tt1340107;Wil;Johnson;1963-10-24
tt1340107;Eddy;Kimani;1944-3-29
tt1340107;Emily;Mulaya;1962-7-2
tt1229381;Jamel;Debbouze;1979-12-15
tt1229381;Roschdy;Zem;1970-12-14
tt1229381;Sami;Bouajila;1968-4-1
tt1229381;Chafia;Boudraa;1959-2-26
tt1255953;Mustafa;Kamel;1970-2-18
tt1255953;Hussein;Sami;1974-7-31
tt1255953;Rémy;Girard;1945-7-13
tt1255953;Mélissa;Désormeaux-Poulin;1956-6-4
tt1379182;Christos;Stergioglou;1979-8-31
tt1379182;Michele;Valley;1966-7-19
tt1379182;Angeliki;Papoulia;1960-7-10
tt1379182;Hristos;Passalis;1953-6-19
tt1431181;Jim;Broadbent;1962-4-30
tt1431181;Ruth;Sheen;1942-5-9
tt1431181;Lesley;Manville;1960-3-19
tt1431181;Oliver;Maltman;1980-7-12
tt0892769;Jay;Baruchel;1963-9-19
tt0892769;Gerard;Butler;1951-11-17
tt0892769;Craig;Ferguson;1947-5-4
tt0892769;America;Ferrera;1945-10-21
tt1555064;Gwyneth;Paltrow;1944-6-24
tt1555064;Tim;McGraw;1972-2-19
tt1555064;Garrett;Hedlund;1946-4-15
tt1555064;Leighton;Meester;1954-8-21
tt0398286;Mandy;Moore;1979-2-7
tt0398286;Zachary;Levi;1970-5-22
tt0398286;Donna;Murphy;1943-5-10
tt0398286;Ron;Perlman;1950-8-15
tt1014759;Johnny;Depp;1947-4-26
tt1014759;Mia;Wasikowska;1947-4-10
tt1014759;Helena;Carter;1943-11-13
tt1014759;Anne;Hathaway;1941-3-1
tt1571403;Adam;Sopp;1970-3-3
tt1571403;Rupert;Grint;1979-6-8
tt1571403;Alice;Keenan;1975-8-12
tt1571403;Rupert;Degas;1972-7-6
tt1226236;Tilda;Swinton;1966-8-25
tt1226236;Flavio;Parenti;1950-9-11
tt1226236;Edoardo;Gabbriellini;1956-6-13
tt1226236;Alba;Rohrwacher;1977-4-20
tt1274300;Felicity;Jones;1970-11-28
tt1274300;Jude;Akuwudike;1952-10-7
tt1274300;Reeve;Carney;1954-9-9
tt1274300;David;Strathairn;1980-12-18
tt0034398;Lon;Jr.;1959-5-28
tt0034398;Claude;Rains;1975-5-25
tt0034398;Warren;William;1962-3-10
tt0034398;Ralph;Bellamy;1972-6-27
tt1423894;Paul;Giamatti;1966-12-8
tt1423894;Macha;Grenon;1968-8-29
tt1423894;Paul;Gross;1971-10-22
tt1423894;Atom;Egoyan;1954-12-9
tt1727388;Steve;Carell;1948-5-17
tt1727388;Toni;Collette;1961-6-28
tt1727388;Allison;Janney;1941-8-25
tt1727388;AnnaSophia;Robb;1945-12-12
tt0944835;Angelina;Jolie;1978-5-27
tt0944835;Liev;Schreiber;1966-1-23
tt0944835;Chiwetel;Ejiofor;1965-1-3
tt0944835;Daniel;Olbrychski;1971-8-23
tt1104001;Jeff;Bridges;1978-6-3
tt1104001;Garrett;Hedlund;1946-4-15
tt1104001;Olivia;Wilde;1955-10-26
tt1104001;Bruce;Boxleitner;1944-11-19
tt0477080;Denzel;Washington;1956-4-9
tt0477080;Chris;Pine;1977-12-19
tt0477080;Rosario;Dawson;1966-2-12
tt0477080;Ethan;Suplee;1954-3-14
tt1212419;Cécile;France;1960-1-25
tt1212419;Thierry;Neuvic;1951-9-14
tt1212419;Cyndi;Davis;1978-3-11
tt1212419;Lisa;Griffiths;1944-12-14
tt1228705;Robert;Jr.;1943-11-29
tt1228705;Gwyneth;Paltrow;1944-6-24
tt1228705;Don;Cheadle;1964-11-17
tt1228705;Scarlett;Johansson;1942-7-25
tt0443543;Edward;Norton;1963-1-18
tt0443543;Paul;Giamatti;1966-12-8
tt0443543;Jessica;Biel;1940-1-19
tt0443543;Rufus;Sewell;1968-9-28
tt1669698;Tim;Minchin;1963-7-21
tt0058182;The;Beatles;1965-10-20
tt0058182;John;Lennon;1954-5-1
tt0058182;Paul;McCartney;1942-10-28
tt0058182;George;Harrison;1941-11-18
tt1461418;Helena;Carter;1943-11-13
tt1461418;James;Corden;1947-3-6
tt1461418;Tom;Wilkinson;1971-12-9
tt1461418;John;Hurt;1942-5-15
tt1590114;N/A;@@@;1971-9-25
tt1470652;Jim;Thornton;1958-1-7
tt1645089;Matt;Damon;1965-4-30
tt1645089;William;Ackman;1958-3-20
tt1645089;Daniel;Alpert;1960-11-23
tt1645089;Jonathan;Alpert;1979-8-29
tt1587707;Banksy;@@@;1947-5-13
tt1587707;Mr.;Brainwash;1956-11-14
tt1587707;Debora;Guetta;1966-2-21
tt1587707;Space;Invader;1960-8-9
tt1558250;Josh;Fox;1954-10-24
tt1558250;Dick;Cheney;1974-5-4
tt1558250;Pete;Seeger;1979-8-13
tt1558250;Richard;Nixon;1940-4-15
tt1559549;The;Team;1974-12-24
tt1559549;Juan;Restrepo;1966-4-11
tt1559549;Dan;Kearney;1951-1-7
tt1559549;LaMonta;Caldwell;1975-4-2
tt1268204;Vik;Muniz;1960-11-22
tt1754549;N/A;@@@;1971-9-25
tt1744887;N/A;@@@;1971-9-25
tt1684897;N/A;@@@;1971-9-25
tt1505384;N/A;@@@;1971-9-25
tt1621975;N/A;@@@;1971-9-25
tt1631323;Luke;Matheny;1971-8-2
tt1631323;Marian;Brock;1950-4-19
tt1631323;Christopher;Hirsh;1953-8-28
tt1631323;Emily;Young;1952-11-22
tt1518330;Samuel;Holland;1971-9-8
tt1518330;Rory;Kinnear;1945-12-16
tt1518330;Kieran;Hardcastle;1972-8-20
tt1518330;Lizzie;Roper;1963-6-23
tt0182503;Sadri;Alisik;1956-2-14
tt0182503;Erol;Amaç;1962-10-9
tt0182503;Cemil;Sahbaz;1967-8-19
tt0182503;Ferdi;Merter;1965-7-25
tt2758880;Haluk;Bilginer;1959-10-29
tt2758880;Melisa;Sözen;1974-3-17
tt2758880;Demet;Akbag;1950-6-27
tt2758880;Ayberk;Pekcan;1958-9-9
tt2692904;Tom;Hardy;1962-8-14
tt2692904;Olivia;Colman;1948-8-14
tt2692904;Ruth;Wilson;1974-4-19
tt2692904;Andrew;Scott;1941-11-29
tt2465578;Fabrizio;Bentivoglio;1979-4-11
tt2465578;Matilde;Gioli;1943-9-9
tt2465578;Valeria;Tedeschi;1974-11-28
tt2465578;Guglielmo;Pinelli;1943-8-5
tt2234003;Brendan;Gleeson;1962-10-4
tt2234003;Chris;O'Dowd;1953-8-27
tt2234003;Kelly;Reilly;1941-3-17
tt2234003;Aidan;Gillen;1954-11-13
tt0821638;Anna;Paquin;1949-9-13
tt0821638;Chevez;Ezaneh;1969-11-22
tt0821638;August;Schellenberg;1940-6-13
tt0821638;Duane;Howard;1943-5-24
tt1181840;Mathias;Malzieu;1966-8-15
tt1181840;Olivia;Ruiz;1952-9-9
tt1181840;Grand;Malade;1950-3-4
tt1181840;Jean;Rochefort;1974-7-10
tt2368672;N/A;@@@;1971-9-25
tt3129484;Rainer;Voss;1969-4-16
tt2823088;Carmina;Barrios;1971-11-1
tt2823088;Paco;Casaus;1964-6-12
tt2823088;María;León;1952-4-26
tt2823088;Mari;Sayago;1951-9-19
tt2392326;Lindsay;Duncan;1969-8-2
tt2392326;Jim;Broadbent;1962-4-30
tt2392326;Igor;Gotesman;1944-4-1
tt2392326;Olivier;Audibert;1949-3-10
tt1031254;Tad;Hilgenbrink;1970-7-10
tt1031254;Angus;Sutherland;1958-2-17
tt1031254;Autumn;Reeser;1973-9-10
tt1031254;Gabrielle;Rose;1948-5-6
tt3114132;Natalia;Tena;1958-2-10
tt3114132;David;Verdaguer;1968-4-20
tt0114095;Parker;Posey;1947-6-20
tt0114095;Anthony;DeSando;1942-11-24
tt0114095;Guillermo;Díaz;1968-2-24
tt0114095;Donna;Mitchell;1970-12-26
tt0101414;Paige;O'Hara;1950-6-24
tt0101414;Robby;Benson;1967-5-27
tt0101414;Richard;White;1960-12-26
tt0101414;Jerry;Orbach;1971-2-23
tt2113681;Robert;Gustafsson;1966-2-27
tt2113681;Iwar;Wiklander;1974-5-21
tt2113681;David;Wiberg;1953-4-18
tt2113681;Mia;Skäringer;1961-3-27
tt2278871;Léa;Seydoux;1970-1-14
tt2278871;Adèle;Exarchopoulos;1953-1-24
tt2278871;Salim;Kechiouche;1948-4-8
tt2278871;Aurélien;Recoing;1953-11-22
tt0336055;N/A;@@@;1971-9-25
tt0107730;Orlow;Seunke;1971-3-10
tt0107730;Kees;Kooten;1973-1-27
tt0107730;Monique;Smets;1947-6-26
tt0107730;Steffen;Kroon;1959-1-12
tt1924396;Geoffrey;Rush;1949-2-25
tt1924396;Jim;Sturgess;1965-6-6
tt1924396;Sylvia;Hoeks;1941-12-26
tt1924396;Donald;Sutherland;1964-8-15
tt1590013;Jesper;Christensen;1946-8-18
tt1590013;Pernilla;August;1940-2-28
tt1590013;Ulla;Skoog;1974-7-3
tt1590013;Björn;Granath;1961-8-21
tt1964624;Fabrice;Luchini;1953-10-24
tt1964624;Ernst;Umhauer;1941-7-13
tt1964624;Kristin;Thomas;1976-11-21
tt1964624;Emmanuelle;Seigner;1943-12-4
tt1674773;Barbara;Sukowa;1967-2-28
tt1674773;Janet;McTeer;1976-7-15
tt1674773;Julia;Jentsch;1950-11-23
tt1674773;Axel;Milberg;1974-12-4
tt2187115;Luminita;Gheorghiu;1957-4-6
tt2187115;Bogdan;Dumitrache;1957-7-31
tt2187115;Natasa;Raab;1964-1-14
tt2187115;Ilinca;Goia;1960-8-21
tt2219514;Hadas;Yaron;1975-11-9
tt2219514;Yiftach;Klein;1956-1-19
tt2219514;Irit;Sheleg;1956-9-15
tt2219514;Chayim;Sharir;1967-2-5
tt0032910;Mel;Blanc;1978-11-18
tt0032910;Don;Brodie;1962-10-26
tt0032910;Walter;Catlett;1959-11-19
tt0032910;Marion;Darlington;1962-9-6
tt0051011;Robert;Wagner;1964-4-9
tt0051011;Joan;Collins;1945-3-12
tt0051011;Edmond;O'Brien;1972-5-21
tt0051011;Ken;Scott;1978-11-6
tt1854236;Trine;Dyrholm;1974-7-24
tt1854236;Stina;Ekblad;1950-1-4
tt1854236;Sebastian;Jessen;1972-1-3
tt1854236;Molly;Egelind;1977-10-22
tt2243389;Antonio;Banderas;1976-4-8
tt2243389;Penélope;Cruz;1943-2-5
tt2243389;Coté;Soler;1978-11-22
tt2243389;Antonio;Torre;1952-10-23
tt2395421;Kresimir;Mikic;1962-10-10
tt2395421;Niksa;Butijer;1950-4-4
tt2395421;Marija;Skaricic;1951-11-6
tt2395421;Drazen;Kuhn;1963-9-10
tt2767948;Claudio;Bisio;1950-11-10
tt2767948;Kasia;Smutniak;1960-2-7
tt2767948;Beppe;Fiorello;1968-4-12
tt2767948;Remo;Girone;1966-2-27
tt1000734;Billie;Piper;1973-9-10
tt1000734;Iddo;Goldberg;1977-7-14
tt1000734;Cherie;Lunghi;1946-10-7
tt1000734;Ashley;Madekwe;1976-12-24
tt2085002;Nermina;Lukac;1957-5-25
tt2085002;Milan;Dragisic;1953-11-11
tt2085002;Jonathan;Lampinen;1961-6-30
tt2085002;Peter;Fält;1963-8-14
tt0090903;Brett;Halsey;1956-10-16
tt0090903;Corinne;Cléry;1962-2-28
tt0090903;Blanca;Marsillach;1959-5-1
tt0090903;Stefano;Madia;1976-10-5
tt0084509;John;Hurt;1942-5-15
tt0084509;Christopher;Benjamin;1960-10-28
tt0084509;James;Bolam;1976-2-20
tt0084509;Nigel;Hawthorne;1944-12-14
tt2178941;Nina;Hoss;1956-9-16
tt2178941;Ronald;Zehrfeld;1949-5-29
tt2178941;Rainer;Bock;1971-6-10
tt2178941;Christina;Hecke;1975-6-28
tt2177511;Cosimo;Rega;1967-1-28
tt2177511;Salvatore;Striano;1943-9-1
tt2177511;Giovanni;Arcuri;1967-3-6
tt2177511;Antonio;Frasca;1944-6-12
tt1723811;Michael;Fassbender;1949-7-31
tt1723811;Lucy;Walters;1945-7-3
tt1723811;Mari-Ange;Ramirez;1953-12-4
tt1723811;James;Dale;1955-12-5
tt1966594;Rob;Lowe;1956-10-28
tt1966594;Kaley;Cuoco-Sweeting;1951-1-1
tt1966594;Catherine;Dent;1960-6-2
tt1966594;Cara;Buono;1974-12-13
tt1827487;Muhammet;Uzuner;1963-7-8
tt1827487;Yilmaz;Erdogan;1974-2-14
tt1827487;Taner;Birsel;1977-11-7
tt1827487;Ahmet;Taylan;1980-8-16
tt1660302;Émilie;Dequenne;1967-12-1
tt1660302;Claire;Bodson;1952-2-4
tt1660302;Niels;Arestrup;1945-8-22
tt1660302;Tahar;Rahim;1963-1-3
tt1403214;Margarete;Tiesel;1964-3-26
tt1403214;Peter;Kazungu;1970-12-15
tt1403214;Inge;Maux;1977-1-30
tt1403214;Dunja;Sowinetz;1944-11-28
tt1692486;Jodie;Foster;1941-6-22
tt1692486;Kate;Winslet;1965-12-9
tt1692486;Christoph;Waltz;1966-12-11
tt1692486;John;Reilly;1944-2-20
tt2258281;Cosmina;Stratan;1942-3-28
tt2258281;Cristina;Flutur;1961-10-20
tt2258281;Valeriu;Andriuta;1980-8-27
tt2258281;Dana;Tapalaga;1972-3-22
tt0016847;Gösta;Ekman;1964-8-2
tt0016847;Emil;Jannings;1954-12-7
tt0016847;Camilla;Horn;1959-12-18
tt0016847;Frida;Richard;1970-4-6
tt2036388;Tao;Zhao;1943-7-14
tt2036388;Rade;Serbedzija;1965-8-4
tt2036388;Marco;Paolini;1941-4-27
tt2036388;Roberto;Citran;1948-9-26
tt1924394;Paul;Brannigan;1957-1-24
tt1924394;Siobhan;Reilly;1943-9-24
tt1924394;John;Henshaw;1962-2-8
tt1924394;Gary;Maitland;1963-12-12
tt1374985;Miroslav;Krobot;1954-12-15
tt1374985;Marie;Ludvíková;1962-9-16
tt1374985;Karel;Roden;1965-1-9
tt1374985;Leos;Noha;1962-5-14
tt1407052;Tacho;González;1971-3-20
tt1407052;Álvaro;Guevara;1940-3-26
tt1407052;Mabel;Rivera;1960-10-31
tt1407052;Raúl;Dans;1954-10-20
tt1937419;Keith;Allen;1950-10-27
tt1937419;Michael;Gambon;1971-3-3
tt1937419;Steve;Jones;1950-9-22
tt1937419;Bill;Nighy;1980-6-12
tt0344186;Samira;Alaie;1951-7-27
tt0344186;Sylva;Andriasian;1961-10-19
tt0344186;Javad;Hassankhani;1945-1-30
tt0344186;Mohammad;Naji;1974-12-18
tt1729226;Kim;Kold;1976-7-15
tt1729226;David;Winters;1973-5-27
tt1729226;Elsebeth;Steentoft;1950-5-27
tt1729226;Per;Rasmussen;1948-10-21
tt0412019;Bill;Murray;1972-6-9
tt0412019;Julie;Delpy;1956-1-15
tt0412019;Heather;Simms;1963-7-9
tt0412019;Brea;Frazier;1959-11-20
tt2043962;Sergey;Borisov;1947-11-28
tt2043962;Olga;Dykhovichnaya;1950-7-25
tt2043962;Sergei;Golyudov;1943-6-28
tt2043962;Roman;Merinov;1966-1-11
tt0029476;William;Gargan;1970-6-24
tt0029476;Jean;Rogers;1965-6-21
tt0029476;Dick;Purcell;1966-5-13
tt0029476;Hobart;Cavanaugh;1968-2-21
tt1753887;Charlotte;Timmers;1972-10-2
tt1753887;Roos;Vlaenderen;1960-10-14
tt1753887;Robrecht;Thoren;1964-8-1
tt1753887;Karel;Vingerhoets;1976-10-6
tt1412386;Judi;Dench;1968-1-25
tt1412386;Tom;Wilkinson;1971-12-9
tt1412386;Patrick;Pearson;1980-10-17
tt1412386;Hugh;Dickson;1951-5-17
tt1614989;Aksel;Hennie;1949-12-14
tt1614989;Synnøve;Lund;1976-5-20
tt1614989;Nikolaj;Coster-Waldau;1964-11-18
tt1614989;Eivind;Sander;1951-3-24
tt1441952;Amr;Waked;1978-8-17
tt1441952;Emily;Blunt;1976-3-29
tt1441952;Catherine;Steadman;1960-7-20
tt1441952;Tom;Mison;1946-6-15
tt1527186;Kirsten;Dunst;1966-9-19
tt1527186;Charlotte;Gainsbourg;1958-4-6
tt1527186;Alexander;Skarsgård;1944-8-27
tt1527186;Brady;Corbet;1975-3-5
tt1827512;Thomas;Doret;1953-6-13
tt1827512;Cécile;France;1960-1-25
tt1827512;Jérémie;Renier;1941-6-26
tt1827512;Fabrizio;Rongione;1976-7-23
tt1508675;André;Wilms;1941-6-2
tt1508675;Kati;Outinen;1952-11-28
tt1508675;Jean-Pierre;Darroussin;1956-5-6
tt1508675;Blondin;Miguel;1940-5-19
tt1316540;János;Derzsi;1950-8-3
tt1316540;Erika;Bók;1975-2-11
tt1316540;Mihály;Kormos;1950-10-28
tt1316540;Lajos;Kovács;1965-12-25
tt1456472;Michel;Piccoli;1963-12-5
tt1456472;Jerzy;Stuhr;1940-8-21
tt1456472;Renato;Scarpa;1963-11-30
tt1456472;Franco;Graziosi;1971-11-5
tt1242460;Tilda;Swinton;1966-8-25
tt1242460;John;Reilly;1944-2-20
tt1242460;Ezra;Miller;1968-8-1
tt1242460;Jasper;Newell;1949-8-6
tt1925421;Nadezhda;Markina;1967-11-15
tt1925421;Andrey;Smirnov;1980-10-7
tt1925421;Elena;Lyadova;1953-12-3
tt1925421;Aleksey;Rozin;1972-3-31
tt1561768;Vincent;Gallo;1960-11-25
tt1561768;Emmanuelle;Seigner;1943-12-4
tt1561768;Zach;Cohen;1948-10-18
tt1561768;Iftach;Ophir;1964-5-2
tt1189073;Antonio;Banderas;1976-4-8
tt1189073;Elena;Anaya;1965-2-27
tt1189073;Marisa;Paredes;1969-12-4
tt1189073;Jan;Cornet;1945-2-2
tt1458175;Russell;Crowe;1958-3-6
tt1458175;Elizabeth;Banks;1943-2-25
tt1458175;Michael;Buie;1979-1-26
tt1458175;Moran;Atias;1953-2-14
tt1355638;Mathieu;Amalric;1973-3-24
tt1355638;François;Damiens;1972-4-19
tt1355638;Hafsia;Herzi;1968-1-7
tt1355638;Eric;Elmosnino;1964-10-4
tt1742178;N/A;@@@;1971-9-25
tt0466650;Tarik;Akan;1949-9-20
tt0466650;Tuncay;Akça;1942-2-10
tt0466650;Rana;Cabbar;1975-4-12
tt0466650;Sibel;Isil;1962-11-18
tt1220706;Ailsa;Marshall;1963-5-25
tt1220706;Michael;McLafferty;1959-6-16
tt1220706;David;Higlen;1972-8-10
tt1220706;Brad;Culver;1976-3-7
tt1503116;Bodil;Jørgensen;1978-2-14
tt1503116;Sebastian;Jessen;1972-1-3
tt1503116;Henrik;Prip;1943-1-25
tt1503116;Mille;Lehfeldt;1959-9-7
tt0465538;Tom;Wilkinson;1971-12-9
tt0465538;Michael;O'Keefe;1970-12-19
tt0465538;Sydney;Pollack;1947-2-16
tt0465538;Danielle;Skraastad;1950-1-5
tt1620449;James;Corden;1947-3-6
tt1620449;Stephen;Fry;1975-9-30
tt1620449;Andy;Serkis;1942-10-19
tt1620449;Dawn;French;1969-10-9
tt1440232;François;Cluzet;1952-6-14
tt1440232;Marion;Cotillard;1942-5-16
tt1440232;Benoît;Magimel;1975-11-11
tt1440232;Gilles;Lellouche;1967-12-4
tt1422032;Luis;Tosar;1951-12-12
tt1422032;Gael;Bernal;1967-8-14
tt1422032;Juan;Aduviri;1962-6-15
tt1422032;Karra;Elejalde;1962-1-23
tt1521848;Catherine;Deneuve;1964-1-4
tt1521848;Gérard;Depardieu;1971-9-18
tt1521848;Fabrice;Luchini;1953-10-24
tt1521848;Karin;Viard;1940-9-7
tt1529235;Claudio;Bisio;1950-11-10
tt1529235;Alessandro;Siani;1943-9-23
tt1529235;Angela;Finocchiaro;1943-6-2
tt1529235;Valentina;Lodovini;1961-11-26
tt0414387;Keira;Knightley;1972-11-17
tt0414387;Talulah;Riley;1957-4-13
tt0414387;Rosamund;Pike;1949-12-30
tt0414387;Jena;Malone;1968-5-17
tt2170593;Bill;Murray;1972-6-9
tt2170593;Melissa;McCarthy;1965-2-22
tt2170593;Naomi;Watts;1947-1-3
tt2170593;Chris;O'Dowd;1953-8-27
tt0375912;Daniel;Craig;1948-10-2
tt0375912;Tom;Hardy;1962-8-14
tt0375912;Jamie;Foreman;1976-10-31
tt0375912;Sally;Hawkins;1953-9-7
tt1126590;Amy;Adams;1950-6-10
tt1126590;Christoph;Waltz;1966-12-11
tt1126590;Krysten;Ritter;1957-6-23
tt1126590;Jason;Schwartzman;1954-2-4
tt2980648;Helen;Mirren;1969-4-18
tt2980648;Om;Puri;1959-5-29
tt2980648;Manish;Dayal;1975-1-28
tt2980648;Charlotte;Bon;1949-8-3
tt2172584;Julianne;Moore;1973-5-16
tt2172584;Mia;Wasikowska;1947-4-10
tt2172584;John;Cusack;1966-6-29
tt2172584;Evan;Bird;1946-7-23
tt0075686;Woody;Allen;1945-7-30
tt0075686;Diane;Keaton;1980-10-1
tt0075686;Tony;Roberts;1976-6-19
tt0075686;Carol;Kane;1960-3-29
tt2937898;Oscar;Isaac;1978-11-2
tt2937898;Jessica;Chastain;1943-4-12
tt2937898;David;Oyelowo;1941-4-28
tt2937898;Alessandro;Nivola;1963-11-29
tt1959490;Russell;Crowe;1958-3-6
tt1959490;Jennifer;Connelly;1966-10-6
tt1959490;Ray;Winstone;1944-10-23
tt1959490;Anthony;Hopkins;1967-12-23
tt3062880;Ronit;Elkabetz;1941-11-17
tt3062880;Simon;Abkarian;1966-11-1
tt3062880;Gabi;Amrani;1945-12-15
tt3062880;Dalia;Beger;1960-9-11
tt2262227;Diego;Luna;1944-5-30
tt2262227;Zoe;Saldana;1947-7-12
tt2262227;Channing;Tatum;1965-8-11
tt2262227;Ron;Perlman;1950-8-15
tt0155267;Pierce;Brosnan;1972-6-24
tt0155267;Rene;Russo;1975-4-11
tt0155267;Denis;Leary;1962-10-28
tt0155267;Ben;Gazzara;1954-6-24
tt1606375;Hugh;Bonneville;1947-10-2
tt1606375;Laura;Carmichael;1961-4-8
tt1606375;Jim;Carter;1962-1-9
tt1606375;Brendan;Coyle;1962-2-24
tt0944947;Lena;Headey;1980-6-8
tt0944947;Peter;Dinklage;1964-6-2
tt0944947;Kit;Harington;1972-8-11
tt0944947;Emilia;Clarke;1964-7-21
tt1442462;Julianna;Margulies;1968-1-14
tt1442462;Matt;Czuchry;1968-12-31
tt1442462;Archie;Panjabi;1955-8-17
tt1442462;Christine;Baranski;1949-2-2
tt1856010;Kevin;Spacey;1967-3-22
tt1856010;Robin;Wright;1963-8-20
tt1856010;Michael;Kelly;1977-4-24
tt1856010;Nathan;Darrow;1954-1-23
tt3502262;Jeffrey;Tambor;1975-8-29
tt3502262;Gaby;Hoffmann;1970-2-22
tt3502262;Amy;Landecker;1977-4-21
tt3502262;Jay;Duplass;1941-11-11
tt0377092;Lindsay;Lohan;1951-8-18
tt0377092;Rachel;McAdams;1957-4-7
tt0377092;Tina;Fey;1964-8-26
tt0377092;Tim;Meadows;1951-11-13
tt3566726;Gina;Rodriguez;1979-1-1
tt3566726;Andrea;Navedo;1954-5-24
tt3566726;Yael;Grobglas;1955-8-19
tt3566726;Justin;Baldoni;1967-4-28
tt2372162;Taylor;Schilling;1949-5-5
tt2372162;Michael;Harney;1951-3-14
tt2372162;Kate;Mulgrew;1950-11-9
tt2372162;Natasha;Lyonne;1952-1-10
tt2575988;Thomas;Middleditch;1954-5-21
tt2575988;Aly;Mawji;1960-7-13
tt2575988;T.J.;Miller;1947-9-27
tt2575988;Josh;Brener;1951-2-27
tt2937900;Clive;Owen;1980-8-25
tt2937900;André;Holland;1963-7-16
tt2937900;Jeremy;Bobb;1957-6-7
tt2937900;Juliet;Rylance;1954-1-15
tt2249007;Liev;Schreiber;1966-1-23
tt2249007;Paula;Malcomson;1964-2-22
tt2249007;Jon;Voight;1958-6-13
tt2249007;Devon;Bagby;1968-10-11
tt2741602;James;Spader;1961-3-31
tt2741602;Megan;Boone;1943-5-22
tt2741602;Diego;Klattenhoff;1950-1-12
tt2741602;Harry;Lennix;1977-3-9
tt1796960;Claire;Danes;1948-9-13
tt1796960;Mandy;Patinkin;1979-2-11
tt1796960;Damian;Lewis;1978-2-28
tt1796960;Morena;Baccarin;1972-5-10
tt3205802;Viola;Davis;1961-4-23
tt3205802;Billy;Brown;1956-5-30
tt3205802;Alfred;Enoch;1966-8-14
tt3205802;Jack;Falahee;1948-1-5
tt1797404;Don;Cheadle;1964-11-17
tt1797404;Kristen;Bell;1955-3-27
tt1797404;Ben;Schwartz;1943-10-16
tt1797404;Josh;Lawson;1943-7-17
tt2616280;Ricky;Gervais;1947-2-27
tt2616280;Kerry;Godliman;1945-8-16
tt2616280;David;Earl;1945-8-21
tt2616280;Tim;Barlow;1956-5-8
tt1492966;Louis;C.K.;1940-2-5
tt1492966;Hadley;Delany;1972-1-7
tt1492966;Ursula;Parker;1968-11-18
tt1586680;William;Macy;1958-3-8
tt1586680;Emmy;Rossum;1952-2-13
tt1586680;Ethan;Cutkosky;1961-10-9
tt1586680;Shanola;Hampton;1968-2-5
tt1190689;Edie;Falco;1942-8-26
tt1190689;Merritt;Wever;1950-11-11
tt1190689;Paul;Schulze;1976-7-22
tt1190689;Stephen;Wallem;1959-7-11
tt1759761;Julia;Louis-Dreyfus;1948-4-15
tt1759761;Anna;Chlumsky;1941-4-11
tt1759761;Matt;Walsh;1945-12-11
tt1759761;Tony;Hale;1943-3-8
tt0116282;William;Macy;1958-3-8
tt0116282;Steve;Buscemi;1954-4-8
tt0116282;Peter;Stormare;1959-6-12
tt0116282;Kristin;Rudrüd;1961-5-13
tt0338188;Tommy;Jones;1967-6-4
tt0338188;Cate;Blanchett;1964-2-5
tt0338188;Evan;Wood;1967-7-2
tt0338188;Jenna;Boyd;1958-6-28
tt2356777;Matthew;McConaughey;1958-4-17
tt2356777;Woody;Harrelson;1963-3-8
tt2356777;Michelle;Monaghan;1972-5-17
tt2356777;Michael;Potts;1947-2-27
tt1684226;Mark;Ruffalo;1956-6-12
tt1684226;Jonathan;Groff;1967-7-9
tt1684226;Frank;Julio;1957-11-10
tt1684226;William;DeMeritt;1955-7-22
tt3012698;Frances;McDormand;1946-11-16
tt3012698;Richard;Jenkins;1966-2-14
tt3012698;Ken;Cheeseman;1941-6-26
tt3012698;Ann;Dowd;1978-5-20
tt3021686;Maggie;Gyllenhaal;1943-10-10
tt3021686;Stephen;Rea;1944-1-28
tt3021686;Lubna;Azabal;1967-4-28
tt3021686;Katherine;Parkinson;1954-7-17
tt0105477;Sylvester;Stallone;1969-12-11
tt0105477;Estelle;Getty;1946-2-21
tt0105477;JoBeth;Williams;1952-12-3
tt0105477;Roger;Rees;1964-12-19
tt1979320;Chris;Hemsworth;1951-7-7
tt1979320;Daniel;Brühl;1940-10-7
tt1979320;Olivia;Wilde;1955-10-26
tt1979320;Alexandra;Lara;1978-6-21
tt1967545;Kate;Winslet;1965-12-9
tt1967545;Josh;Brolin;1960-3-11
tt1967545;Gattlin;Griffith;1946-12-31
tt1967545;Tobey;Maguire;1959-9-28
tt2390361;Julia;Louis-Dreyfus;1948-4-15
tt2390361;Lennie;Loftin;1952-3-9
tt2390361;Jessica;Clair;1940-8-12
tt2390361;Christopher;Smith;1961-2-5
tt2347569;Greta;Gerwig;1948-6-12
tt2347569;Mickey;Sumner;1968-1-1
tt2347569;Michael;Esper;1975-10-15
tt2347569;Adam;Driver;1953-12-7
tt1951264;Jennifer;Lawrence;1978-2-28
tt1951264;Liam;Hemsworth;1976-10-9
tt1951264;Jack;Quaid;1974-4-6
tt1951264;Taylor;Clair;1978-8-14
tt1196956;James;Corden;1947-3-6
tt1196956;Alexandra;Roach;1955-11-5
tt1196956;Julie;Walters;1974-5-4
tt1196956;Colm;Meaney;1960-1-15
tt0124298;Brendan;Fraser;1959-7-28
tt0124298;Alicia;Silverstone;1947-10-13
tt0124298;Christopher;Walken;1971-5-17
tt0124298;Sissy;Spacek;1973-5-31
tt0903747;Bryan;Cranston;1949-10-30
tt0903747;Anna;Gunn;1944-8-3
tt0903747;Aaron;Paul;1962-4-13
tt0903747;Dean;Norris;1959-11-21
tt2137109;Michael;Sheen;1951-12-11
tt2137109;Lizzy;Caplan;1972-4-28
tt2137109;Caitlin;FitzGerald;1979-12-31
tt2137109;Teddy;Sears;1956-12-24
tt2467372;Andy;Samberg;1941-2-26
tt2467372;Stephanie;Beatriz;1942-6-24
tt2467372;Terry;Crews;1962-10-1
tt2467372;Melissa;Fumero;1973-5-12
tt0898266;Johnny;Galecki;1972-8-24
tt0898266;Jim;Parsons;1978-4-8
tt0898266;Kaley;Cuoco-Sweeting;1951-1-1
tt0898266;Simon;Helberg;1954-7-15
tt1442437;Ed;O'Neill;1956-1-25
tt1442437;Sofía;Vergara;1958-4-18
tt1442437;Julie;Bowen;1970-5-18
tt1442437;Ty;Burrell;1945-12-20
tt1266020;Amy;Poehler;1967-1-21
tt1266020;Nick;Offerman;1952-7-20
tt1266020;Aubrey;Plaza;1964-4-1
tt1266020;Chris;Pratt;1956-9-27
tt2234222;Tatiana;Maslany;1955-10-30
tt2234222;Dylan;Bruce;1940-7-27
tt2234222;Jordan;Gavaris;1980-4-21
tt2234222;Kevin;Hanchard;1957-11-9
tt0465551;Judi;Dench;1968-1-25
tt0465551;Cate;Blanchett;1964-2-5
tt0465551;Tom;Georgeson;1954-8-30
tt0465551;Michael;Maloney;1980-8-9
tt0367279;Jason;Bateman;1968-10-22
tt0367279;Portia;Rossi;1953-2-6
tt0367279;Will;Arnett;1956-12-8
tt0367279;Michael;Cera;1964-6-7
tt2338232;Michael;Fox;1942-12-22
tt2338232;Betsy;Brandt;1972-3-17
tt2338232;Wendell;Pierce;1980-7-4
tt2338232;Katie;Finneran;1977-1-25
tt1826940;Zooey;Deschanel;1947-8-15
tt1826940;Jake;Johnson;1971-5-4
tt1826940;Max;Greenfield;1972-7-9
tt1826940;Hannah;Simone;1945-1-5
tt1291580;Matt;Damon;1965-4-30
tt1291580;Scott;Bakula;1969-5-19
tt1291580;Eric;Zuckerman;1977-4-3
tt1291580;Eddie;Jemison;1979-5-11
tt2163315;Chiwetel;Ejiofor;1965-1-3
tt2163315;Matthew;Goode;1976-3-17
tt2163315;Joanna;Vanderham;1955-9-16
tt2163315;Wunmi;Mosaku;1957-6-18
tt2103085;Elisabeth;Moss;1950-9-11
tt2103085;Thomas;Wright;1942-9-7
tt2103085;Peter;Mullan;1978-9-18
tt2103085;David;Wenham;1964-12-18
tt2372220;Aneurin;Barnard;1940-8-4
tt2372220;Rebecca;Ferguson;1974-3-28
tt2372220;Amanda;Hale;1965-2-15
tt2372220;Faye;Marsay;1953-6-24
tt1474684;Idris;Elba;1979-6-18
tt1474684;Warren;Brown;1971-5-1
tt1474684;Dermot;Crowley;1955-7-20
tt1474684;Michael;Smiley;1979-4-7
tt1745862;Al;Pacino;1980-4-12
tt1745862;Helen;Mirren;1969-4-18
tt1745862;Jeffrey;Tambor;1975-8-29
tt1745862;Chiwetel;Ejiofor;1965-1-3
tt2709784;Dominic;West;1955-5-30
tt2709784;Helena;Carter;1943-11-13
tt2709784;Greg;Hicks;1950-11-17
tt2709784;Jeff;Mash;1944-7-7
tt0073440;David;Arkin;1941-10-22
tt0073440;Barbara;Baxley;1948-8-14
tt0073440;Ned;Beatty;1961-3-16
tt0073440;Karen;Black;1944-1-14
tt0098067;Steve;Martin;1962-4-21
tt0098067;Mary;Steenburgen;1943-1-29
tt0098067;Dianne;Wiest;1945-9-16
tt0098067;Jason;Robards;1952-2-14
tt1764183;Richard;Gere;1980-10-6
tt1764183;Susan;Sarandon;1976-11-22
tt1764183;Tim;Roth;1960-8-14
tt1764183;Brit;Marling;1980-1-1
tt2053425;Marion;Cotillard;1942-5-16
tt2053425;Matthias;Schoenaerts;1944-8-22
tt2053425;Armand;Verdure;1980-12-24
tt2053425;Céline;Sallette;1969-1-10
tt1700844;Ann;Mitchell;1950-5-9
tt1700844;Jolyon;Coy;1963-11-8
tt1700844;Karl;Johnson;1943-9-3
tt1700844;Rachel;Weisz;1968-5-23
tt1704573;Jack;Black;1966-10-19
tt1704573;Shirley;MacLaine;1961-8-31
tt1704573;Matthew;McConaughey;1958-4-17
tt1704573;Brady;Coleman;1961-6-20
tt1477855;Bill;Murray;1972-6-9
tt1477855;Laura;Linney;1951-11-20
tt1477855;Samuel;West;1956-6-8
tt1477855;Olivia;Colman;1948-8-14
tt1441951;Maggie;Smith;1945-5-2
tt1441951;Tom;Courtenay;1971-7-29
tt1441951;Billy;Connolly;1978-6-14
tt1441951;Pauline;Collins;1975-11-2
tt1535438;Meryl;Streep;1940-5-13
tt1535438;Tommy;Jones;1967-6-4
tt1535438;Steve;Carell;1948-5-17
tt1535438;Jean;Smart;1955-7-22
tt1496422;Zac;Efron;1971-8-9
tt1496422;Matthew;McConaughey;1958-4-17
tt1496422;Nicole;Kidman;1963-8-30
tt1496422;John;Cusack;1966-6-29
tt1371111;Tom;Hanks;1952-11-10
tt1371111;Halle;Berry;1974-3-26
tt1371111;Jim;Broadbent;1962-4-30
tt1371111;Hugo;Weaving;1980-9-18
tt1591479;Rorke;Denver;1967-12-26
tt1591479;Dave;@@@;1955-3-13
tt1591479;Sonny;@@@;1942-11-15
tt1591479;Weimy;@@@;1953-9-29
tt1389096;Al;Pacino;1980-4-12
tt1389096;Christopher;Walken;1971-5-17
tt1389096;Alan;Arkin;1962-3-6
tt1389096;Julianna;Margulies;1968-1-14
tt1392170;Stanley;Tucci;1959-11-25
tt1392170;Wes;Bentley;1954-5-31
tt1392170;Jennifer;Lawrence;1978-2-28
tt1392170;Willow;Shields;1956-9-22
tt0837562;Adam;Sandler;1968-8-9
tt0837562;Andy;Samberg;1941-2-26
tt0837562;Selena;Gomez;1972-5-20
tt0837562;Kevin;James;1975-8-25
tt1446192;Chris;Pine;1977-12-19
tt1446192;Alec;Baldwin;1963-4-30
tt1446192;Jude;Law;1971-11-4
tt1446192;Isla;Fisher;1972-7-6
tt0979432;Steve;Buscemi;1954-4-8
tt0979432;Stephen;Graham;1972-10-2
tt0979432;Vincent;Piazza;1966-5-16
tt0979432;Kelly;Macdonald;1942-5-9
tt1870479;Jeff;Daniels;1943-2-2
tt1870479;Emily;Mortimer;1944-2-18
tt1870479;John;Jr.;1948-6-1
tt1870479;Alison;Pill;1964-2-27
tt1582350;Matt;LeBlanc;1949-7-25
tt1582350;Tamsin;Greig;1980-9-25
tt1582350;Stephen;Mangan;1948-6-18
tt1582350;John;Pankow;1949-3-30
tt1825133;Debra;Messing;1968-10-1
tt1825133;Jack;Davenport;1942-3-9
tt1825133;Katharine;McPhee;1955-7-23
tt1825133;Christian;Borle;1979-12-24
tt0804503;Jon;Hamm;1957-10-26
tt0804503;Elisabeth;Moss;1950-9-11
tt0804503;Vincent;Kartheiser;1962-6-18
tt0804503;January;Jones;1973-12-30
tt0914387;Glenn;Close;1975-6-27
tt0914387;Rose;Byrne;1962-9-26
tt0914387;Tate;Donovan;1964-10-2
tt0914387;Zachary;Booth;1963-11-29
tt0496424;Tina;Fey;1964-8-26
tt0496424;Tracy;Morgan;1957-12-3
tt0496424;Jack;McBrayer;1949-2-20
tt0496424;Scott;Adsit;1974-1-1
tt1848902;Julianne;Moore;1973-5-16
tt1848902;Woody;Harrelson;1963-3-8
tt1848902;Ed;Harris;1959-10-1
tt1848902;Peter;MacNicol;1975-8-13
tt1985443;Kevin;Costner;1951-6-27
tt1985443;Bill;Paxton;1971-6-29
tt1985443;Matt;Barr;1941-10-5
tt1985443;Tom;Berenger;1956-4-21
tt1093357;Emile;Hirsch;1976-6-7
tt1093357;Olivia;Thirlby;1970-9-26
tt1093357;Max;Minghella;1975-3-18
tt1093357;Rachael;Taylor;1943-5-6
tt2239947;Sigourney;Weaver;1970-12-3
tt2239947;Carla;Gugino;1950-6-23
tt2239947;James;Wolk;1975-5-28
tt2239947;Sebastian;Stan;1972-4-6
tt0988045;Robert;Jr.;1943-11-29
tt0988045;Jude;Law;1971-11-4
tt0988045;Rachel;McAdams;1957-4-7
tt0988045;Mark;Strong;1975-5-18
tt0423455;Nicole;Kidman;1963-8-30
tt0423455;Clive;Owen;1980-8-25
tt0423455;David;Strathairn;1980-12-18
tt0423455;Rodrigo;Santoro;1974-7-4
tt4146008;Luke;Stokes;1968-2-6
tt1832045;Jeffrey;Morgan;1979-12-7
tt1832045;Olga;Kurylenko;1954-5-12
tt1832045;Steven;Strait;1952-1-3
tt1832045;Jessica;Marais;1968-1-22
tt1306980;Joseph;Gordon-Levitt;1959-5-25
tt1306980;Seth;Rogen;1947-2-14
tt1306980;Anna;Kendrick;1970-12-30
tt1306980;Bryce;Howard;1974-10-12
tt1616195;Leonardo;DiCaprio;1951-10-10
tt1616195;Josh;Hamilton;1964-9-13
tt1616195;Geoff;Pierson;1956-12-30
tt1616195;Cheryl;Lawson;1951-5-19
tt1540133;Ronan;Collins;1968-11-15
tt1540133;Paraic;Nialand;1977-6-19
tt1540133;John;Beirne;1945-8-11
tt1540133;Liam;O'Conghaile;1973-8-1
tt1625346;Charlize;Theron;1952-5-29
tt1625346;Patton;Oswalt;1971-10-31
tt1625346;Patrick;Wilson;1952-7-25
tt1625346;Elizabeth;Reaser;1957-10-15
tt1571222;Keira;Knightley;1972-11-17
tt1571222;Viggo;Mortensen;1965-4-26
tt1571222;Michael;Fassbender;1949-7-31
tt1571222;Vincent;Cassel;1954-12-21
tt1586752;Gerard;Butler;1951-11-17
tt1586752;Michelle;Monaghan;1972-5-17
tt1586752;Kathy;Baker;1959-9-29
tt1586752;Michael;Shannon;1972-8-8
tt1714209;Zana;Marjanovic;1949-9-28
tt1714209;Goran;Kostic;1946-8-26
tt1714209;Rade;Serbedzija;1965-8-4
tt1714209;Vanessa;Glodjo;1956-11-14
tt1410063;Christian;Bale;1960-5-1
tt1410063;Ni;Ni;1961-3-1
tt1410063;Xinyi;Zhang;1952-1-7
tt1410063;Tianyuan;Huang;1960-10-8
tt1216475;Larry;Guy;1954-5-6
tt1216475;Owen;Wilson;1951-1-4
tt1216475;Michael;Caine;1953-6-30
tt1216475;Emily;Mortimer;1944-2-18
tt1430607;James;McAvoy;1945-3-19
tt1430607;Hugh;Laurie;1961-11-16
tt1430607;Bill;Nighy;1980-6-12
tt1430607;Jim;Broadbent;1962-4-30
tt0270980;Mark;Aisbett;1960-10-8
tt0270980;Ashton;Kutcher;1966-12-2
tt0270980;Jon;Abrahams;1964-12-31
tt0270980;Tara;Reid;1980-3-2
tt1509004;Laura;Dern;1951-12-5
tt1509004;Diane;Ladd;1960-3-23
tt1509004;Sarah;Burns;1961-2-19
tt1509004;Luke;Wilson;1948-10-4
tt1327801;Chris;Colfer;1962-4-6
tt1327801;Jane;Lynch;1960-1-4
tt1327801;Kevin;McHale;1980-5-18
tt1327801;Lea;Michele;1949-4-12
tt1582457;Jeremy;Irons;1962-8-14
tt1582457;François;Arnaud;1947-2-5
tt1582457;Holliday;Grainger;1975-5-5
tt1582457;Peter;Sullivan;1941-12-18
tt1637727;Mireille;Enos;1960-5-4
tt1637727;Joel;Kinnaman;1980-10-22
tt1637727;Billy;Campbell;1966-12-4
tt1637727;Liam;James;1940-2-18
tt0121766;Ewan;McGregor;1960-3-4
tt0121766;Natalie;Portman;1955-5-21
tt0121766;Hayden;Christensen;1955-12-28
tt0121766;Ian;McDiarmid;1959-1-9
tt0102517;Scott;Bakula;1969-5-19
tt0102517;Hector;Elizondo;1946-3-9
tt0102517;Robert;Loggia;1977-7-15
tt0102517;Harley;Kozak;1959-1-30
tt0904208;David;Duchovny;1966-6-11
tt0904208;Natascha;McElhone;1969-3-27
tt0904208;Evan;Handler;1976-11-20
tt0904208;Pamela;Adlon;1958-8-1
tt1229413;Thomas;Jane;1941-10-10
tt1229413;Jane;Adams;1962-12-24
tt1229413;Charlie;Saxton;1953-8-30
tt1229413;Sianoa;Smit-McPhee;1960-1-4
tt1515193;Laura;Linney;1951-11-20
tt1515193;Oliver;Platt;1946-12-7
tt1515193;Gabriel;Basso;1963-8-9
tt1515193;John;Hickey;1952-3-10
tt0037913;Joan;Crawford;1949-2-6
tt0037913;Jack;Carson;1950-11-15
tt0037913;Zachary;Scott;1945-3-20
tt0037913;Eve;Arden;1943-2-14
tt1742683;James;Woods;1971-6-22
tt1742683;John;Heard;1951-2-6
tt1742683;William;Hurt;1977-8-23
tt1742683;Erin;Dilly;1941-7-3
tt1623742;Diane;Lane;1943-2-9
tt1623742;Thomas;Dekker;1954-10-14
tt1623742;Tim;Robbins;1943-3-9
tt1623742;James;Gandolfini;1966-2-20
tt1797469;Bill;Nighy;1980-6-12
tt1797469;Rachel;Weisz;1968-5-23
tt1797469;Tom;Hughes;1958-2-17
tt1797469;Michael;Gambon;1971-3-3
tt1831575;Emily;Watson;1944-1-4
tt1831575;Dominic;West;1955-5-30
tt1831575;Robert;Glenister;1971-10-23
tt1831575;Sylvestra;Touzel;1945-11-13
tt1245526;Bruce;Willis;1945-9-16
tt1245526;Mary-Louise;Parker;1951-7-2
tt1245526;Heidi;Palleske;1946-9-3
tt1245526;Karl;Urban;1957-3-8
tt1243957;Johnny;Depp;1947-4-26
tt1243957;Angelina;Jolie;1978-5-27
tt1243957;Paul;Bettany;1956-6-11
tt1243957;Timothy;Dalton;1943-4-26
tt1126591;Cher;@@@;1942-3-20
tt1126591;Christina;Aguilera;1979-8-28
tt1126591;Eric;Dane;1944-4-19
tt1126591;Cam;Gigandet;1963-10-29
tt1194417;Kevin;Spacey;1967-3-22
tt1194417;Ruth;Marshall;1977-9-26
tt1194417;Graham;Greene;1958-9-29
tt1194417;Hannah;Endicott-Douglas;1973-12-12
tt1282140;Emma;Stone;1978-12-13
tt1282140;Penn;Badgley;1979-9-7
tt1282140;Amanda;Bynes;1973-6-26
tt1282140;Dan;Byrd;1962-1-19
tt0980970;Georgie;Henley;1940-6-9
tt0980970;Skandar;Keynes;1968-3-1
tt0980970;Ben;Barnes;1951-12-11
tt0980970;Will;Poulter;1964-4-5
tt0055862;N/A;@@@;1971-9-25
tt0317198;Renée;Zellweger;1944-3-22
tt0317198;Gemma;Jones;1946-1-6
tt0317198;Jim;Broadbent;1962-4-30
tt0317198;James;Faulkner;1970-9-8
tt1323594;Steve;Carell;1948-5-17
tt1323594;Jason;Segel;1971-5-14
tt1323594;Russell;Brand;1954-4-29
tt1323594;Julie;Andrews;1964-1-8
tt0773262;Michael;Hall;1953-5-4
tt0773262;Jennifer;Carpenter;1976-7-16
tt0773262;David;Zayas;1962-9-19
tt0773262;James;Remar;1950-1-22
tt1520211;Andrew;Lincoln;1966-1-2
tt1520211;Steven;Yeun;1947-11-29
tt1520211;Chandler;Riggs;1974-12-29
tt1520211;Norman;Reedus;1958-9-27
tt0412142;Hugh;Laurie;1961-11-16
tt0412142;Omar;Epps;1966-11-29
tt0412142;Robert;Leonard;1954-5-21
tt0412142;Jesse;Spencer;1965-10-4
tt1124373;Charlie;Hunnam;1955-11-29
tt1124373;Mark;Junior;1971-1-7
tt1124373;Katey;Sagal;1942-7-7
tt1124373;Kim;Coates;1962-12-27
tt1495708;Piper;Perabo;1943-7-28
tt1495708;Christopher;Gorham;1947-11-29
tt1495708;Kari;Matchett;1949-1-24
tt1495708;Peter;Gallagher;1964-3-9
tt0458253;Kyra;Sedgwick;1949-12-6
tt0458253;J.K.;Simmons;1976-1-3
tt0458253;Corey;Reynolds;1957-5-13
tt0458253;Robert;Gossett;1953-6-8
tt0386676;Rainn;Wilson;1962-12-10
tt0386676;John;Krasinski;1976-1-19
tt0386676;Jenna;Fischer;1942-11-10
tt0386676;Leslie;Baker;1949-3-7
tt1001482;Toni;Collette;1961-6-28
tt1001482;John;Corbett;1949-12-21
tt1001482;Rosemarie;DeWitt;1971-7-1
tt1001482;Keir;Gilchrist;1957-2-4
tt1321865;Édgar;Ramírez;1941-3-6
tt1321865;Alexander;Scheer;1963-2-26
tt1321865;Fadi;Samra;1942-5-31
tt1321865;Lamia;Ahmed;1949-1-18
tt0374463;James;Dale;1955-12-5
tt0374463;Joseph;Mazzello;1943-9-29
tt0374463;Jon;Seda;1952-11-9
tt0374463;Sebastian;Bertoli;1950-12-5
tt1453159;Ian;McShane;1979-10-3
tt1453159;Matthew;Macfadyen;1979-2-16
tt1453159;Eddie;Redmayne;1953-12-15
tt1453159;Hayley;Atwell;1954-4-22
tt1278469;Claire;Danes;1948-9-13
tt1278469;Julia;Ormond;1943-9-14
tt1278469;David;Strathairn;1980-12-18
tt1278469;Catherine;O'Hara;1940-10-24
tt1132623;Al;Pacino;1980-4-12
tt1132623;Brenda;Vaccaro;1942-8-28
tt1132623;John;Goodman;1952-5-10
tt1132623;Deirdre;O'Connell;1957-10-9
tt1117646;Michael;Sheen;1951-12-11
tt1117646;Demetri;Goritsas;1945-4-7
tt1117646;Adam;Godley;1975-2-11
tt1117646;Marc;Rioufol;1941-10-19
tt0974077;Judi;Dench;1968-1-25
tt0974077;Julia;McKenzie;1945-2-6
tt0974077;Imelda;Staunton;1972-2-21
tt0974077;Lisa;Dillon;1945-12-18
tt0116191;Gwyneth;Paltrow;1944-6-24
tt0116191;James;Cosmo;1948-10-10
tt0116191;Greta;Scacchi;1942-9-4
tt0116191;Alan;Cumming;1973-9-18
tt2022170;Jennifer;Hewitt;1974-2-8
tt2022170;Loretta;Devine;1967-8-25
tt2022170;Colin;Egglesfield;1961-12-28
tt2022170;Cybill;Shepherd;1956-9-25
tt1600194;Alex;O'Loughlin;1973-1-30
tt1600194;Scott;Caan;1978-4-6
tt1600194;Daniel;Kim;1951-10-2
tt1600194;Grace;Park;1956-5-11
tt2980764;Walt;Disney;1974-6-17
tt2980764;Marcellite;Garner;1949-9-19
tt2980764;Russi;Taylor;1978-2-11
tt2980764;Billy;Bletcher;1955-12-4
tt2175842;N/A;@@@;1971-9-25
tt2125423;Emad;Burnat;1958-10-7
tt2125423;Soraya;Burnat;1940-8-1
tt2125423;Mohammed;Burnat;1944-11-25
tt2125423;Yasin;Burnat;1980-4-21
tt0477302;Tom;Hanks;1952-11-10
tt0477302;Thomas;Horn;1961-10-27
tt0477302;Sandra;Bullock;1971-1-18
tt0477302;Zoe;Caldwell;1960-12-20
tt1832382;Peyman;Moaadi;1959-2-25
tt1832382;Leila;Hatami;1955-4-16
tt1832382;Sareh;Bayat;1970-4-5
tt1832382;Shahab;Hosseini;1949-11-15
tt1937390;Charlotte;Gainsbourg;1958-4-6
tt1937390;Stellan;Skarsgård;1956-8-17
tt1937390;Stacy;Martin;1942-4-11
tt1937390;Shia;LaBeouf;1951-4-25
tt2614684;Jack;O'Connell;1957-8-3
tt2614684;Sean;Harris;1961-6-29
tt2614684;Richard;Dormer;1977-8-31
tt2614684;Paul;Anderson;1943-11-23
tt2215113;N/A;@@@;1971-9-25
tt1839662;N/A;@@@;1971-9-25
tt1757939;N/A;@@@;1971-9-25
tt1516593;Marko;Todorovic;1951-12-24
tt1516593;Stefan;Djordjevic;1959-11-30
tt1516593;Dunja;Kovacevic;1969-8-31
tt1516593;Marko;Milenkovic;1968-8-24
tt1951265;Jennifer;Lawrence;1978-2-28
tt1951265;Josh;Hutcherson;1967-6-28
tt1951265;Liam;Hemsworth;1976-10-9
tt1951265;Woody;Harrelson;1963-3-8
tt1844624;Evan;Peters;1971-3-27
tt1844624;Jessica;Lange;1946-5-11
tt1844624;Sarah;Paulson;1947-3-31
tt1844624;Frances;Conroy;1942-11-28
tt0377981;James;McAvoy;1945-3-19
tt0377981;Emily;Blunt;1976-3-29
tt0377981;Ashley;Jensen;1971-3-1
tt0377981;Michael;Caine;1953-6-30
tt1221208;Halle;Berry;1974-3-26
tt1221208;Stellan;Skarsgård;1956-8-17
tt1221208;Phylicia;Rashad;1968-6-11
tt1221208;Chandra;Wilson;1958-3-20
tt0758752;Jake;Gyllenhaal;1940-7-3
tt0758752;Anne;Hathaway;1941-3-1
tt0758752;Oliver;Platt;1946-12-7
tt0758752;Hank;Azaria;1967-1-27
tt1027718;Richard;Stratton;1960-6-23
tt1027718;Harry;Kerrigan;1958-7-18
tt1027718;Michael;Douglas;1974-9-23
tt1027718;Carey;Mulligan;1965-11-3
